﻿
DisplayName "Undersea Temple (North) B1F"



EVENT   1
 PAGE   1
  0()



EVENT   2
 PAGE   1
  0()



EVENT   3
 PAGE   1
  0()



EVENT   4
 PAGE   1
  0()



EVENT   5
 PAGE   1
  0()



EVENT   6
 PAGE   1
  0()



EVENT   7
 PAGE   1
  0()



EVENT   8
 PAGE   1
  0()



EVENT   9
 PAGE   1
  0()



EVENT   10
 PAGE   1
  0()



EVENT   11
 PAGE   1
  0()



EVENT   12
 PAGE   1
  0()



EVENT   13
 PAGE   1
  0()



EVENT   14
 PAGE   1
  0()



EVENT   15
 PAGE   1
  0()



EVENT   16
 PAGE   1
  0()



EVENT   17
 PAGE   1
  0()



EVENT   18
 PAGE   1
  0()



EVENT   19
 PAGE   1
  0()



EVENT   20
 PAGE   1
  0()



EVENT   21
 PAGE   1
  0()



EVENT   22
 PAGE   1
  0()



EVENT   23
 PAGE   1
  0()



EVENT   24
 PAGE   1
  0()



EVENT   25
 PAGE   1
  0()



EVENT   26
 PAGE   1
  0()



EVENT   27
 PAGE   1
  0()



EVENT   28
 PAGE   1
  0()



EVENT   29
 PAGE   1
  0()



EVENT   30
 PAGE   1
  0()



EVENT   31
 PAGE   1
  0()



EVENT   32
 PAGE   1
  0()



EVENT   33
 PAGE   1
  0()



EVENT   34
 PAGE   1
  0()



EVENT   35
 PAGE   1
  0()



EVENT   36
 PAGE   1
  0()



EVENT   37
 PAGE   1
  0()



EVENT   38
 PAGE   1
  0()



EVENT   39
 PAGE   1
  0()



EVENT   40
 PAGE   1
  0()



EVENT   41
 PAGE   1
  0()



EVENT   42
 PAGE   1
  0()



EVENT   43
 PAGE   1
  0()



EVENT   44
 PAGE   1
  0()



EVENT   45
 PAGE   1
  0()



EVENT   46
 PAGE   1
  0()



EVENT   47
 PAGE   1
  0()



EVENT   48
 PAGE   1
  0()



EVENT   49
 PAGE   1
  0()



EVENT   50
 PAGE   1
  0()



EVENT   51
 PAGE   1
  0()



EVENT   52
 PAGE   1
  0()



EVENT   53
 PAGE   1
  0()



EVENT   54
 PAGE   1
  0()



EVENT   55
 PAGE   1
  0()



EVENT   56
 PAGE   1
  0()



EVENT   57
 PAGE   1
  0()



EVENT   58
 PAGE   1
  0()



EVENT   59
 PAGE   1
  0()



EVENT   60
 PAGE   1
  0()



EVENT   61
 PAGE   1
  0()



EVENT   62
 PAGE   1
  0()



EVENT   63
 PAGE   1
  0()



EVENT   64
 PAGE   1
  0()



EVENT   65
 PAGE   1
  0()



EVENT   66
 PAGE   1
  0()



EVENT   67
 PAGE   1
  0()



EVENT   68
 PAGE   1
  0()



EVENT   69
 PAGE   1
  0()



EVENT   70
 PAGE   1
  0()



EVENT   71
 PAGE   1
  0()



EVENT   72
 PAGE   1
  0()



EVENT   73
 PAGE   1
  0()



EVENT   74
 PAGE   1
  0()



EVENT   75
 PAGE   1
  0()



EVENT   76
 PAGE   1
  0()



EVENT   77
 PAGE   1
  0()



EVENT   78
 PAGE   1
  0()



EVENT   79
 PAGE   1
  0()



EVENT   80
 PAGE   1
  0()



EVENT   81
 PAGE   1
  0()



EVENT   82
 PAGE   1
  0()



EVENT   83
 PAGE   1
  0()



EVENT   84
 PAGE   1
  0()



EVENT   85
 PAGE   1
  0()



EVENT   86
 PAGE   1
  0()



EVENT   87
 PAGE   1
  0()



EVENT   88
 PAGE   1
  0()



EVENT   89
 PAGE   1
  0()



EVENT   90
 PAGE   1
  0()



EVENT   91
 PAGE   1
  0()



EVENT   92
 PAGE   1
  0()



EVENT   93
 PAGE   1
  0()



EVENT   94
 PAGE   1
  0()



EVENT   95
 PAGE   1
  0()



EVENT   96
 PAGE   1
  0()



EVENT   97
 PAGE   1
  0()



EVENT   98
 PAGE   1
  0()



EVENT   99
 PAGE   1
  0()



EVENT   100
 PAGE   1
  0()



EVENT   101
 PAGE   1
  0()



EVENT   102
 PAGE   1
  281(1)
  250(bytes(0x04,0x08,0x6f,0x3a,0x0c,0x52,0x50,0x47,0x3a,0x3a,0x53,0x45,0x08,0x3a,0x0a,0x40,0x6e,0x61,0x6d,0x65,0x49,0x22,0x09,0x4d,0x6f,0x76,0x65,0x06,0x3a,0x06,0x45,0x54,0x3a,0x0b,0x40,0x70,0x69,0x74,0x63,0x68,0x69,0x69,0x3a,0x0c,0x40,0x76,0x6f,0x6c,0x75,0x6d,0x65,0x69,0x55))
  TeleportPlayer(0,148,33,34,0,0)
  0()



EVENT   103
 PAGE   1
  281(1)
  250(bytes(0x04,0x08,0x6f,0x3a,0x0c,0x52,0x50,0x47,0x3a,0x3a,0x53,0x45,0x08,0x3a,0x0a,0x40,0x6e,0x61,0x6d,0x65,0x49,0x22,0x09,0x4d,0x6f,0x76,0x65,0x06,0x3a,0x06,0x45,0x54,0x3a,0x0b,0x40,0x70,0x69,0x74,0x63,0x68,0x69,0x69,0x3a,0x0c,0x40,0x76,0x6f,0x6c,0x75,0x6d,0x65,0x69,0x55))
  TeleportPlayer(0,148,33,34,0,0)
  0()



EVENT   104
 PAGE   1
  281(1)
  250(bytes(0x04,0x08,0x6f,0x3a,0x0c,0x52,0x50,0x47,0x3a,0x3a,0x53,0x45,0x08,0x3a,0x0a,0x40,0x6e,0x61,0x6d,0x65,0x49,0x22,0x09,0x4d,0x6f,0x76,0x65,0x06,0x3a,0x06,0x45,0x54,0x3a,0x0b,0x40,0x70,0x69,0x74,0x63,0x68,0x69,0x69,0x3a,0x0c,0x40,0x76,0x6f,0x6c,0x75,0x6d,0x65,0x69,0x55))
  TeleportPlayer(0,148,33,34,0,0)
  0()



EVENT   105
 PAGE   1
  250(bytes(0x04,0x08,0x6f,0x3a,0x0c,0x52,0x50,0x47,0x3a,0x3a,0x53,0x45,0x08,0x3a,0x0a,0x40,0x6e,0x61,0x6d,0x65,0x49,0x22,0x0a,0x43,0x68,0x65,0x73,0x74,0x06,0x3a,0x06,0x45,0x54,0x3a,0x0b,0x40,0x70,0x69,0x74,0x63,0x68,0x69,0x69,0x3a,0x0c,0x40,0x76,0x6f,0x6c,0x75,0x6d,0x65,0x69,0x55))
  205(0,bytes(0x04,0x08,0x6f,0x3a,0x13,0x52,0x50,0x47,0x3a,0x3a,0x4d,0x6f,0x76,0x65,0x52,0x6f,0x75,0x74,0x65,0x09,0x3a,0x0c,0x40,0x72,0x65,0x70,0x65,0x61,0x74,0x46,0x3a,0x0f,0x40,0x73,0x6b,0x69,0x70,0x70,0x61,0x62,0x6c,0x65,0x46,0x3a,0x0a,0x40,0x77,0x61,0x69,0x74,0x54,0x3a,0x0a,0x40,0x6c,0x69,0x73,0x74,0x5b,0x0b,0x6f,0x3a,0x15,0x52,0x50,0x47,0x3a,0x3a,0x4d,0x6f,0x76,0x65,0x43,0x6f,0x6d,0x6d,0x61,0x6e,0x64,0x07,0x3a,0x0a,0x40,0x63,0x6f,0x64,0x65,0x69,0x29,0x3a,0x10,0x40,0x70,0x61,0x72,0x61,0x6d,0x65,0x74,0x65,0x72,0x73,0x5b,0x00,0x6f,0x3b,0x0a,0x07,0x3b,0x0b,0x69,0x16,0x3b,0x0c,0x5b,0x00,0x6f,0x3b,0x0a,0x07,0x3b,0x0b,0x69,0x14,0x3b,0x0c,0x5b,0x06,0x69,0x08,0x6f,0x3b,0x0a,0x07,0x3b,0x0b,0x69,0x17,0x3b,0x0c,0x5b,0x00,0x6f,0x3b,0x0a,0x07,0x3b,0x0b,0x69,0x14,0x3b,0x0c,0x5b,0x06,0x69,0x08,0x6f,0x3b,0x0a,0x07,0x3b,0x0b,0x69,0x00,0x3b,0x0c,0x5b,0x00))
  ChangeSelfSwitch("A",0)
  ChangeInventoryArmor(1557,0,0,1)
  0()
 PAGE   2
  // condition: self-switch A is ON
  0()



EVENT   106
 PAGE   1
  250(bytes(0x04,0x08,0x6f,0x3a,0x0c,0x52,0x50,0x47,0x3a,0x3a,0x53,0x45,0x08,0x3a,0x0a,0x40,0x6e,0x61,0x6d,0x65,0x49,0x22,0x0a,0x43,0x68,0x65,0x73,0x74,0x06,0x3a,0x06,0x45,0x54,0x3a,0x0b,0x40,0x70,0x69,0x74,0x63,0x68,0x69,0x69,0x3a,0x0c,0x40,0x76,0x6f,0x6c,0x75,0x6d,0x65,0x69,0x55))
  205(0,bytes(0x04,0x08,0x6f,0x3a,0x13,0x52,0x50,0x47,0x3a,0x3a,0x4d,0x6f,0x76,0x65,0x52,0x6f,0x75,0x74,0x65,0x09,0x3a,0x0c,0x40,0x72,0x65,0x70,0x65,0x61,0x74,0x46,0x3a,0x0f,0x40,0x73,0x6b,0x69,0x70,0x70,0x61,0x62,0x6c,0x65,0x46,0x3a,0x0a,0x40,0x77,0x61,0x69,0x74,0x54,0x3a,0x0a,0x40,0x6c,0x69,0x73,0x74,0x5b,0x0b,0x6f,0x3a,0x15,0x52,0x50,0x47,0x3a,0x3a,0x4d,0x6f,0x76,0x65,0x43,0x6f,0x6d,0x6d,0x61,0x6e,0x64,0x07,0x3a,0x0a,0x40,0x63,0x6f,0x64,0x65,0x69,0x29,0x3a,0x10,0x40,0x70,0x61,0x72,0x61,0x6d,0x65,0x74,0x65,0x72,0x73,0x5b,0x00,0x6f,0x3b,0x0a,0x07,0x3b,0x0b,0x69,0x16,0x3b,0x0c,0x5b,0x00,0x6f,0x3b,0x0a,0x07,0x3b,0x0b,0x69,0x14,0x3b,0x0c,0x5b,0x06,0x69,0x08,0x6f,0x3b,0x0a,0x07,0x3b,0x0b,0x69,0x17,0x3b,0x0c,0x5b,0x00,0x6f,0x3b,0x0a,0x07,0x3b,0x0b,0x69,0x14,0x3b,0x0c,0x5b,0x06,0x69,0x08,0x6f,0x3b,0x0a,0x07,0x3b,0x0b,0x69,0x00,0x3b,0x0c,0x5b,0x00))
  ChangeSelfSwitch("A",0)
  ChangeInventory_Item(57,0,0,1)
  0()
 PAGE   2
  // condition: self-switch A is ON
  0()



EVENT   107
 PAGE   1
  If(1,1068,0,2,2)
   241(bytes(0x04,0x08,0x6f,0x3a,0x0d,0x52,0x50,0x47,0x3a,0x3a,0x42,0x47,0x4d,0x08,0x3a,0x0a,0x40,0x6e,0x61,0x6d,0x65,0x49,0x22,0x0a,0x62,0x6f,0x73,0x73,0x30,0x06,0x3a,0x06,0x45,0x54,0x3a,0x0c,0x40,0x76,0x6f,0x6c,0x75,0x6d,0x65,0x69,0x69,0x3a,0x0b,0x40,0x70,0x69,0x74,0x63,0x68,0x69,0x69))
   PictureDisplay(5,"80_poseidones_st01",0,0,0,0,100,100,0,0)
   PictureMove(5,null,0,0,0,0,100,100,255,0,60,true)
   ShowMessageFace("poseidones_fc1",0,0,2,1)
   ShowMessage("\\n<ポセイドネス>私は、北海の女王ポセイドネス……")
   ShowMessage("この海底神殿の主にして、北半分の海の管理者だ。")
   If(0,6,0)
    ShowMessageFace("sonia_fc2",2,0,2,2)
    ShowMessage("\\n<Sonya>大きくて、強そう……")
    ShowMessage("戦いに来たんじゃないから、穏便に話を進めないとね。")
    0()
   Else()
    ShowMessageFace("ruka_fc1",0,0,2,3)
    ShowMessage("\\n<Luka>大きくて、強そうだ……")
    ShowMessage("戦いに来たんじゃないから、穏便に話を進めないと。")
    0()
   EndIf()
   ShowMessageFace("poseidones_fc1",0,0,2,4)
   ShowMessage("\\n<ポセイドネス>それでは、答えるがいい。")
   ShowMessage("お前達は、何をしに私に会いに来たのだ？")
   If(4,203,0)
    ShowMessageFace("tatunoko_k_fc1",2,0,2,5)
    ShowMessage("\\n<Tatsuko>ウソをついたら、怖そうなのです……")
    0()
   EndIf()
   If(1,1068,0,0,0)
    If(1,1016,0,3,1)
     ShowMessageFace("",0,0,2,6)
     ShowMessage("ここに来たのは、クラーケン娘を元に戻してもらうため。")
     ShowMessage("そう言えば、ここに秘宝があるとも聞いたが――")
     0()
    Else()
     ShowMessageFace("",0,0,2,7)
     ShowMessage("正直、特に用事はない。")
     ShowMessage("適当な事を言って逃げるとしようか――")
     0()
    EndIf()
    0()
   Else()
    If(1,1016,0,3,1)
     ShowMessageFace("",0,0,2,8)
     ShowMessage("クラーケンを元に戻す事、それにシルバーオーブ――")
     ShowMessage("さて、どう答えて切り抜けようか？")
     0()
    Else()
     ShowMessageFace("",0,0,2,9)
     ShowMessage("シルバーオーブをもらうために来たのだが――")
     ShowMessage("あえて変な事を言ってみるというアプローチもあるかもしれない。")
     0()
    EndIf()
    0()
   EndIf()
   ShowChoices(strings("しゃべるスルメのために","シルバーオーブをもらいに","用はない"),3)
   IfPlayerPicksChoice(0,null)
    ShowMessageFace("poseidones_fc1",0,0,2,10)
    ShowMessage("\\n<ポセイドネス>何を、訳の分からない事を……")
    ShowMessage("ここまで来て、私を愚弄するとは罪深い！")
    JumpToLabel("戦闘")
    0()
   IfPlayerPicksChoice(1,null)
    ShowMessageFace("poseidones_fc1",0,0,2,11)
    ShowMessage("\\n<ポセイドネス>なんと、オーブを奪いに来ただと！？")
    ShowMessage("私の前で、そのような野心を吐露するとは罪深い！")
    JumpToLabel("戦闘")
    0()
   IfPlayerPicksChoice(2,null)
    ShowMessageFace("poseidones_fc1",0,0,2,12)
    ShowMessage("\\n<ポセイドネス>……ならば、去るがいい。")
    ShowMessage("私はここで、海の北半分を見張らなければならんのだ……")
    PictureClear(5)
    241(bytes(0x04,0x08,0x6f,0x3a,0x0d,0x52,0x50,0x47,0x3a,0x3a,0x42,0x47,0x4d,0x08,0x3a,0x0a,0x40,0x6e,0x61,0x6d,0x65,0x49,0x22,0x10,0x64,0x75,0x6e,0x67,0x65,0x6f,0x6e,0x5f,0x75,0x6d,0x69,0x06,0x3a,0x06,0x45,0x54,0x3a,0x0c,0x40,0x76,0x6f,0x6c,0x75,0x6d,0x65,0x69,0x69,0x3a,0x0b,0x40,0x70,0x69,0x74,0x63,0x68,0x69,0x69))
    EndEventProcessing()
    0()
   404()
   DefineLabel("戦闘")
   ShowMessageFace("poseidones_fc1",0,0,2,13)
   ShowMessage("\\n<ポセイドネス>その横暴、死をもって処する！")
   ShowMessage("さあ、罰を受けるがいい！")
   If(0,4,0)
    ShowMessageFace("alice_fc5",6,0,2,14)
    ShowMessage("\\n<Alice>ちょっと待て、ポセイドネス！")
    ShowMessage("話を聞け！")
    0()
   EndIf()
   If(0,5,0)
    ShowMessageFace("iriasu_fc5",0,0,2,15)
    ShowMessage("\\n<Ilias>なんなのです、この話を聞かないタコは！")
    ShowMessage("どちらが裁きを下す側なのか、思い知らせましょう！")
    0()
   EndIf()
   ShowMessageFace("poseidones_fc1",0,0,2,16)
   ShowMessage("\\n<ポセイドネス>罰を不当と思うなら、力で挑むがいい！")
   ShowMessage("それこそ、海の掟よ！")
   If(4,226,0)
    ShowMessageFace("sirohebisama_fc1",0,0,2,17)
    ShowMessage("\\n<Shirohebi>なんと理不尽な掟よ……")
    ShowMessage("そんなもの、受け入れられようもないな。")
    0()
   EndIf()
   ShowMessageFace("ruka_fc1",0,0,2,18)
   ShowMessage("\\n<Luka>成り行きだけど、仕方ない！　戦うぞ！")
   If(4,280,0)
    ShowMessageFace("poseidones_fc1",1,0,2,19)
    ShowMessage("\\n<ポセイドネス’>こうして見ると、私の体は食べ所がいっぱいだな。")
    ShowMessage("タコの足にカニの身、卵を産ませればイクラ……")
    ShowMessageFace("poseidones_fc1",2,0,2,20)
    ShowMessage("\\n<ポセイドネス>まさか、我が身でひとり海鮮丼を作るつもりか！")
    ShowMessage("なんと恐ろしい事を考える者どもよ、消えるがいい！")
    0()
   EndIf()
   PictureClear(5)
   SetBattleBGM(bytes(0x04,0x08,0x6f,0x3a,0x0d,0x52,0x50,0x47,0x3a,0x3a,0x42,0x47,0x4d,0x08,0x3a,0x0a,0x40,0x6e,0x61,0x6d,0x65,0x49,0x22,0x0a,0x62,0x6f,0x73,0x73,0x31,0x06,0x3a,0x06,0x45,0x54,0x3a,0x0c,0x40,0x76,0x6f,0x6c,0x75,0x6d,0x65,0x69,0x69,0x3a,0x0b,0x40,0x70,0x69,0x74,0x63,0x68,0x69,0x69))
   ChangeSwitch(22,22,0)
   Battle(0,735,false,false)
   ChangeSwitch(22,22,1)
   SetBattleBGM(bytes(0x04,0x08,0x6f,0x3a,0x0d,0x52,0x50,0x47,0x3a,0x3a,0x42,0x47,0x4d,0x08,0x3a,0x0a,0x40,0x6e,0x61,0x6d,0x65,0x49,0x22,0x0b,0x62,0x61,0x74,0x74,0x6c,0x65,0x06,0x3a,0x06,0x45,0x54,0x3a,0x0c,0x40,0x76,0x6f,0x6c,0x75,0x6d,0x65,0x69,0x69,0x3a,0x0b,0x40,0x70,0x69,0x74,0x63,0x68,0x69,0x69))
   ChangeVariable(1068,1068,0,0,3)
   241(bytes(0x04,0x08,0x6f,0x3a,0x0d,0x52,0x50,0x47,0x3a,0x3a,0x42,0x47,0x4d,0x08,0x3a,0x0a,0x40,0x6e,0x61,0x6d,0x65,0x49,0x22,0x14,0x73,0x63,0x65,0x6e,0x65,0x5f,0x65,0x70,0x69,0x6c,0x6f,0x67,0x75,0x65,0x32,0x06,0x3a,0x06,0x45,0x54,0x3a,0x0c,0x40,0x76,0x6f,0x6c,0x75,0x6d,0x65,0x69,0x69,0x3a,0x0b,0x40,0x70,0x69,0x74,0x63,0x68,0x69,0x69))
   PictureDisplay(5,"80_poseidones_st03",0,0,0,0,100,100,0,0)
   PictureMove(5,null,0,0,0,0,100,100,255,0,30,true)
   ShowMessageFace("poseidones_fc1",2,0,2,21)
   ShowMessage("\\n<ポセイドネス>煮るなり焼くなり、好きにするがいい……")
   ShowMessage("幸い、私は体のどこを取っても美味しいぞ。")
   If(0,4,0)
    ShowMessageFace("alice_fc6",1,0,2,22)
    ShowMessage("\\n<Alice>それは後だ！　まずは話があると言っているだろう！")
    0()
   EndIf()
   If(0,5,0)
    ShowMessageFace("iriasu_fc5",0,0,2,23)
    ShowMessage("\\n<Ilias>それは後です！　まずは話があると言っているでしょう！")
    0()
   EndIf()
   If(0,6,0)
    ShowMessageFace("sonia_fc3",2,0,2,24)
    ShowMessage("\\n<Sonya>……って、後で食べる気！？")
    0()
   Else()
    ShowMessageFace("ruka_fc1",0,0,2,25)
    ShowMessage("\\n<Luka>後で食べる気なの……！？")
    0()
   EndIf()
   If(1,1016,0,3,1)
    ShowMessageFace("kraken_fc2",0,0,2,26)
    ShowMessage("\\n<クラーケン娘>話を聞くのです、ポセイドネス……")
    ShowMessage("この私が何者か、分かりますよね？")
    ShowMessageFace("poseidones_fc1",2,0,2,27)
    ShowMessage("\\n<ポセイドネス>スルメがしゃべった！？")
    ShowMessageFace("kraken_fc2",0,0,2,28)
    ShowMessage("\\n<クラーケン娘>分かっていないのですか……")
    ShowMessage("私です、クラーケン娘です。")
    ShowMessageFace("poseidones_fc1",2,0,2,29)
    ShowMessage("\\n<ポセイドネス>なんと、我が盟友ではないか！")
    ShowMessage("その姿は、いったい――")
    ShowMessageFace("",0,0,2,30)
    ShowMessage("ルカ達は、事情を説明した……")
    PictureDisplay(5,"80_poseidones_st01",0,0,0,0,100,100,255,0)
    ShowMessageFace("poseidones_fc1",0,0,2,31)
    ShowMessage("\\n<ポセイドネス>なるほど、かように恐ろしい淫魔が――")
    ShowMessage("そこまで精を吸い尽くすとは、凄まじい力よ。")
    ShowMessageFace("poseidones_fc1",0,0,2,32)
    ShowMessage("\\n<ポセイドネス>……結論を言えば、私に治す力はない。")
    ShowMessage("戦士型である私は、他者を癒す事に長けていないのだ。")
    ShowMessageFace("poseidones_fc1",0,0,2,33)
    ShowMessage("\\n<ポセイドネス>頼るならば、人魚の女王。")
    ShowMessage("水の力を持ち、癒しに長け……適任はかの者以外におるまい。")
    If(0,4,0)
     ShowMessageFace("alice_fc5",0,0,2,34)
     ShowMessage("\\n<Alice>なるほど、クィーンマーメイドか。")
     ShowMessage("確かに彼女ならば、スルメを元に戻す力を持っていよう。")
     0()
    EndIf()
    If(0,5,0)
     ShowMessageFace("iriasu_fc4",2,0,2,35)
     ShowMessage("\\n<Ilias>クィーンマーメイドですか……")
     ShowMessage("適任ではあるのですが、魔物に頼るのは気が進みませんね。")
     0()
    EndIf()
    If(1,1071,0,0,0)
     If(0,4,0)
      ShowMessageFace("alice_fc5",0,0,2,36)
      ShowMessage("\\n<Alice>しかし女王は、今は所在不明のはず。")
      ShowMessage("確かアリス17世に追い散らされ、どこかに隠れているのだったか。")
      0()
     EndIf()
     If(0,5,0)
      ShowMessageFace("iriasu_fc4",2,0,2,37)
      ShowMessage("\\n<Ilias>しかしあの者は、今は所在不明のはず。")
      ShowMessage("アリス17世に追い散らされ、どこかに隠れているという噂ですね。")
      0()
     EndIf()
     ShowMessageFace("poseidones_fc1",0,0,2,38)
     ShowMessage("\\n<ポセイドネス>クィーンマーメイドの居場所は、私にも分からん。")
     ShowMessage("あれ程の者だ、己の気配など完全に消し去っていよう。")
     If(4,14,0)
      ShowMessageFace("undine_fc1",2,0,2,39)
      ShowMessage("\\n<Undine>面倒な話になったものね……")
      0()
     EndIf()
     If(0,4,0)
      ShowMessageFace("alice_fc5",0,0,2,40)
      ShowMessage("\\n<Alice>悪いが、あまり入念に探し回っている暇もない。")
      ShowMessage("クィーンマーメイド探索は、後回しにするべきだな。")
      0()
     EndIf()
     If(0,5,0)
      ShowMessageFace("iriasu_fc4",2,0,2,41)
      ShowMessage("\\n<Ilias>こちらも、あまりのんびりは出来ない身。")
      ShowMessage("クィーンマーメイド探索は、後回しにしましょう。")
      0()
     EndIf()
     ShowMessageFace("kraken_fc2",0,0,2,42)
     ShowMessage("\\n<クラーケン娘>分かりました、しばしこの姿で耐えましょう……")
     ShowMessage("あなた達も、与えられた使命がある身なのですから。")
     If(0,6,0)
      ShowMessageFace("sonia_fc1",0,0,2,43)
      ShowMessage("\\n<Sonya>向かう先で、クィーンマーメイドの情報が入るかもしれないしね。")
      ShowMessage("もしかしたら、偶然に会ったりして……")
      0()
     Else()
      ShowMessageFace("ruka_fc1",0,0,2,44)
      ShowMessage("\\n<Luka>向かう先で、クィーンマーメイドの情報が入るかもしれないね。")
      ShowMessage("もしかしたら、偶然に会ったりして……")
      0()
     EndIf()
     0()
    EndIf()
    If(1,1071,0,1,0)
     ShowMessageFace("",0,0,2,45)
     ShowMessage("どうせ、クィーンマーメイドにも会いにいかなければならないのだ。")
     ShowMessage("なんとか説得して、頼んでみるとしよう。")
     0()
    EndIf()
    If(1,1071,0,2,1)
     ShowMessageFace("",0,0,2,46)
     ShowMessage("クィーンマーメイドなら、滝の洞窟にいるはず。")
     ShowMessage("さっそく会いに行くとしよう。")
     0()
    EndIf()
    ShowMessageFace("poseidones_fc1",0,0,2,47)
    ShowMessage("\\n<ポセイドネス>そちらの用件は済んだようだな。")
    ShowMessage("ついでに、シルバーオーブを持っていくがいい。")
    0()
   Else()
    PictureDisplay(5,"80_poseidones_st01",0,0,0,0,100,100,255,0)
    ShowMessageFace("poseidones_fc1",0,0,2,48)
    ShowMessage("\\n<ポセイドネス>話ならば、分かっている。")
    ShowMessage("さあ、シルバーオーブを持っていくがいい……")
    0()
   EndIf()
   ShowMessageFace("ruka_fc1",0,0,2,49)
   ShowMessage("\\n<Luka>えっ、いいんですか……？")
   ShowMessageFace("poseidones_fc1",0,0,2,50)
   ShowMessage("\\n<ポセイドネス>私に勝ったのだ、お前達に受け取る資格がある。")
   ShowMessage("それに、必要になる時が必ず来るだろう。")
   250(bytes(0x04,0x08,0x6f,0x3a,0x0c,0x52,0x50,0x47,0x3a,0x3a,0x53,0x45,0x08,0x3a,0x0a,0x40,0x6e,0x61,0x6d,0x65,0x49,0x22,0x0a,0x49,0x74,0x65,0x6d,0x31,0x06,0x3a,0x06,0x45,0x54,0x3a,0x0b,0x40,0x70,0x69,0x74,0x63,0x68,0x69,0x69,0x3a,0x0c,0x40,0x76,0x6f,0x6c,0x75,0x6d,0x65,0x69,0x55))
   ChangeInventory_Item(542,0,0,1)
   355("gain_medal(46)")
   If(1,1016,0,3,1)
    ShowMessageFace("poseidones_fc1",0,0,2,51)
    ShowMessage("\\n<ポセイドネス>ほとんど力になれず、申し訳ない。")
    ShowMessage("クラーケン娘が元に戻ったら、顔でも見せに来てくれ。")
    PictureClear(5)
    ShowMessageFace("",0,0,2,52)
    ShowMessage("クラーケン娘の件は、クィーンマーメイドを見つけるまで保留となった。")
    ShowMessage("だが、シルバーオーブは大きな収穫と言えるだろう。")
    0()
   Else()
    ShowMessageFace("poseidones_fc1",0,0,2,53)
    ShowMessage("\\n<ポセイドネス>さあ、さっさと行くがいい。")
    ShowMessage("私は忙しいのだ……")
    PictureClear(5)
    0()
   EndIf()
   ShowMessageFace("ruka_fc1",0,0,2,54)
   ShowMessage("\\n<Luka>それじゃあ、旅を続けよう！")
   RunCommonEvent(330)
   241(bytes(0x04,0x08,0x6f,0x3a,0x0d,0x52,0x50,0x47,0x3a,0x3a,0x42,0x47,0x4d,0x08,0x3a,0x0a,0x40,0x6e,0x61,0x6d,0x65,0x49,0x22,0x10,0x64,0x75,0x6e,0x67,0x65,0x6f,0x6e,0x5f,0x75,0x6d,0x69,0x06,0x3a,0x06,0x45,0x54,0x3a,0x0c,0x40,0x76,0x6f,0x6c,0x75,0x6d,0x65,0x69,0x69,0x3a,0x0b,0x40,0x70,0x69,0x74,0x63,0x68,0x69,0x69))
   EndEventProcessing()
   0()
  EndIf()
  If(1,1068,0,3,0)
   If(0,2251,1)
    PictureDisplay(5,"80_poseidones_st01",0,0,0,0,100,100,0,0)
    PictureMove(5,null,0,0,0,0,100,100,255,0,30,true)
    If(1,1016,0,3,1)
     ShowMessageFace("poseidones_fc1",0,0,2,55)
     ShowMessage("\\n<ポセイドネス>ほとんど力になれず、申し訳ない。")
     ShowMessage("クラーケン娘が元に戻ったら、顔でも見せに来てくれ。")
     0()
    Else()
     ShowMessageFace("poseidones_fc1",0,0,2,56)
     ShowMessage("\\n<ポセイドネス>さあ、さっさと行くがいい。")
     ShowMessage("私は忙しいのだ……")
     0()
    EndIf()
    PictureClear(5)
    EndEventProcessing()
    0()
   EndIf()
   If(0,2251,0)
    PictureDisplay(5,"80_poseidones_st01",0,0,0,0,100,100,0,0)
    PictureMove(5,null,0,0,0,0,100,100,255,0,30,true)
    ShowMessageFace("kraken_fc1",0,0,2,57)
    ShowMessage("\\n<クラーケン>スルメ以来ですね、ポセイドネス。")
    ShowMessage("この通り、元の体に戻る事ができました。")
    ShowMessageFace("poseidones_fc1",1,0,2,58)
    ShowMessage("\\n<ポセイドネス>良かった、心配したのだぞ……")
    ShowMessage("久々に大海の宴と洒落込みたいな。")
    ShowMessageFace("kraken_fc1",1,0,2,59)
    ShowMessage("\\n<クラーケン>それでは、地上に何か良いものでも食べに行きませんか？")
    ShowMessageFace("poseidones_fc1",1,0,2,60)
    ShowMessage("\\n<ポセイドネス>それは良い、付き合おう……")
    PictureClear(5)
    205(0,bytes(0x04,0x08,0x6f,0x3a,0x13,0x52,0x50,0x47,0x3a,0x3a,0x4d,0x6f,0x76,0x65,0x52,0x6f,0x75,0x74,0x65,0x09,0x3a,0x0c,0x40,0x72,0x65,0x70,0x65,0x61,0x74,0x46,0x3a,0x0f,0x40,0x73,0x6b,0x69,0x70,0x70,0x61,0x62,0x6c,0x65,0x46,0x3a,0x0a,0x40,0x77,0x61,0x69,0x74,0x54,0x3a,0x0a,0x40,0x6c,0x69,0x73,0x74,0x5b,0x09,0x6f,0x3a,0x15,0x52,0x50,0x47,0x3a,0x3a,0x4d,0x6f,0x76,0x65,0x43,0x6f,0x6d,0x6d,0x61,0x6e,0x64,0x07,0x3a,0x0a,0x40,0x63,0x6f,0x64,0x65,0x69,0x2a,0x3a,0x10,0x40,0x70,0x61,0x72,0x61,0x6d,0x65,0x74,0x65,0x72,0x73,0x5b,0x00,0x6f,0x3b,0x0a,0x07,0x3b,0x0b,0x69,0x0f,0x3b,0x0c,0x5b,0x00,0x6f,0x3b,0x0a,0x07,0x3b,0x0b,0x69,0x2c,0x3b,0x0c,0x5b,0x00,0x6f,0x3b,0x0a,0x07,0x3b,0x0b,0x69,0x00,0x3b,0x0c,0x5b,0x00))
    355("add_actor_ex(280)")
    ChangeSelfSwitch("A",0)
    249(bytes(0x04,0x08,0x6f,0x3a,0x0c,0x52,0x50,0x47,0x3a,0x3a,0x4d,0x45,0x08,0x3a,0x0a,0x40,0x6e,0x61,0x6d,0x65,0x49,0x22,0x0c,0x66,0x61,0x6e,0x66,0x61,0x6c,0x65,0x06,0x3a,0x06,0x45,0x54,0x3a,0x0b,0x40,0x70,0x69,0x74,0x63,0x68,0x69,0x69,0x3a,0x0c,0x40,0x76,0x6f,0x6c,0x75,0x6d,0x65,0x69,0x69))
    ShowMessageFace("",0,0,2,61)
    ShowMessage("ポセイドネスが仲間に加わった！")
    Wait(60)
    If(0,6,0)
     ShowMessageFace("sonia_fc3",2,0,2,62)
     ShowMessage("\\n<Sonya>雑な感じで仲間入りした！")
     0()
    Else()
     ShowMessageFace("ruka_fc1",0,0,2,63)
     ShowMessage("\\n<Luka>ずいぶん雑に仲間に入ったな……")
     0()
    EndIf()
    If(0,4,0)
     ShowMessageFace("alice_fc5",5,0,2,64)
     ShowMessage("\\n<Alice>海の魔物どもは、みんなこんな感じだ……")
     0()
    EndIf()
    If(0,5,0)
     ShowMessageFace("iriasu_fc4",2,0,2,65)
     ShowMessage("\\n<Ilias>海の魔物どもは、みなこのような感じですよ……")
     0()
    EndIf()
    ShowMessageFace("poseidones_fc1",0,0,2,66)
    ShowMessage("\\n<ポセイドネス>大海の如くおおらかな気風、と言ってもらいたいな。")
    ShowMessage("それで、どこへ何を食べに行くのだ？")
    If(0,4,0)
     ShowMessageFace("alice_fc5",5,0,2,67)
     ShowMessage("\\n<Alice>自分の足でも食ってろ……")
     0()
    EndIf()
    If(0,5,0)
     ShowMessageFace("iriasu_fc4",2,0,2,68)
     ShowMessage("\\n<Ilias>自分の足でも食べなさい。")
     0()
    EndIf()
    EndEventProcessing()
    0()
   EndIf()
   0()
  EndIf()
  0()
 PAGE   2
  // condition: self-switch A is ON
  0()



EVENT   108
 PAGE   1
  ShowMessageFace("",0,0,2,1)
  ShowMessage("回復のツボだ！")
  250(bytes(0x04,0x08,0x6f,0x3a,0x0c,0x52,0x50,0x47,0x3a,0x3a,0x53,0x45,0x08,0x3a,0x0a,0x40,0x6e,0x61,0x6d,0x65,0x49,0x22,0x0a,0x48,0x65,0x61,0x6c,0x37,0x06,0x3a,0x06,0x45,0x54,0x3a,0x0b,0x40,0x70,0x69,0x74,0x63,0x68,0x69,0x69,0x3a,0x0c,0x40,0x76,0x6f,0x6c,0x75,0x6d,0x65,0x69,0x55))
  224(bytes(0x04,0x08,0x75,0x3a,0x0a,0x43,0x6f,0x6c,0x6f,0x72,0x25,0x00,0x00,0x00,0x00,0x00,0xe0,0x6f,0x40,0x00,0x00,0x00,0x00,0x00,0xe0,0x6f,0x40,0x00,0x00,0x00,0x00,0x00,0xe0,0x6f,0x40,0x00,0x00,0x00,0x00,0x00,0xe0,0x6f,0x40),30,true)
  314(0,0)
  ShowMessageFace("",0,0,2,2)
  ShowMessage("The party's HP and MP have been fully restored!")
  0()



EVENT   109
 PAGE   1
  If(12,"unlock_level < 1")
   ShowMessageFace("",0,0,2,1)
   ShowMessage("The chest is locked.")
   EndEventProcessing()
   0()
  EndIf()
  250(bytes(0x04,0x08,0x6f,0x3a,0x0c,0x52,0x50,0x47,0x3a,0x3a,0x53,0x45,0x08,0x3a,0x0a,0x40,0x6e,0x61,0x6d,0x65,0x49,0x22,0x0a,0x43,0x68,0x65,0x73,0x74,0x06,0x3a,0x06,0x45,0x54,0x3a,0x0b,0x40,0x70,0x69,0x74,0x63,0x68,0x69,0x69,0x3a,0x0c,0x40,0x76,0x6f,0x6c,0x75,0x6d,0x65,0x69,0x55))
  205(0,bytes(0x04,0x08,0x6f,0x3a,0x13,0x52,0x50,0x47,0x3a,0x3a,0x4d,0x6f,0x76,0x65,0x52,0x6f,0x75,0x74,0x65,0x09,0x3a,0x0c,0x40,0x72,0x65,0x70,0x65,0x61,0x74,0x46,0x3a,0x0f,0x40,0x73,0x6b,0x69,0x70,0x70,0x61,0x62,0x6c,0x65,0x46,0x3a,0x0a,0x40,0x77,0x61,0x69,0x74,0x54,0x3a,0x0a,0x40,0x6c,0x69,0x73,0x74,0x5b,0x0b,0x6f,0x3a,0x15,0x52,0x50,0x47,0x3a,0x3a,0x4d,0x6f,0x76,0x65,0x43,0x6f,0x6d,0x6d,0x61,0x6e,0x64,0x07,0x3a,0x0a,0x40,0x63,0x6f,0x64,0x65,0x69,0x29,0x3a,0x10,0x40,0x70,0x61,0x72,0x61,0x6d,0x65,0x74,0x65,0x72,0x73,0x5b,0x00,0x6f,0x3b,0x0a,0x07,0x3b,0x0b,0x69,0x16,0x3b,0x0c,0x5b,0x00,0x6f,0x3b,0x0a,0x07,0x3b,0x0b,0x69,0x14,0x3b,0x0c,0x5b,0x06,0x69,0x08,0x6f,0x3b,0x0a,0x07,0x3b,0x0b,0x69,0x17,0x3b,0x0c,0x5b,0x00,0x6f,0x3b,0x0a,0x07,0x3b,0x0b,0x69,0x14,0x3b,0x0c,0x5b,0x06,0x69,0x08,0x6f,0x3b,0x0a,0x07,0x3b,0x0b,0x69,0x00,0x3b,0x0c,0x5b,0x00))
  ChangeSelfSwitch("A",0)
  ChangeInventoryWeapon(810,0,0,1)
  0()
 PAGE   2
  // condition: self-switch A is ON
  0()
