﻿
DisplayName "Toxic Swamp"



EVENT   1
 PAGE   1
  250(bytes(0x04,0x08,0x6f,0x3a,0x0c,0x52,0x50,0x47,0x3a,0x3a,0x53,0x45,0x08,0x3a,0x0a,0x40,0x6e,0x61,0x6d,0x65,0x49,0x22,0x09,0x4d,0x6f,0x76,0x65,0x06,0x3a,0x06,0x45,0x54,0x3a,0x0b,0x40,0x70,0x69,0x74,0x63,0x68,0x69,0x69,0x3a,0x0c,0x40,0x76,0x6f,0x6c,0x75,0x6d,0x65,0x69,0x55))
  TeleportPlayer(0,2,262,160,0,0)
  0()



EVENT   2
 PAGE   1
  250(bytes(0x04,0x08,0x6f,0x3a,0x0c,0x52,0x50,0x47,0x3a,0x3a,0x53,0x45,0x08,0x3a,0x0a,0x40,0x6e,0x61,0x6d,0x65,0x49,0x22,0x09,0x4d,0x6f,0x76,0x65,0x06,0x3a,0x06,0x45,0x54,0x3a,0x0b,0x40,0x70,0x69,0x74,0x63,0x68,0x69,0x69,0x3a,0x0c,0x40,0x76,0x6f,0x6c,0x75,0x6d,0x65,0x69,0x55))
  TeleportPlayer(0,2,262,160,0,0)
  0()



EVENT   3
 PAGE   1
  250(bytes(0x04,0x08,0x6f,0x3a,0x0c,0x52,0x50,0x47,0x3a,0x3a,0x53,0x45,0x08,0x3a,0x0a,0x40,0x6e,0x61,0x6d,0x65,0x49,0x22,0x09,0x4d,0x6f,0x76,0x65,0x06,0x3a,0x06,0x45,0x54,0x3a,0x0b,0x40,0x70,0x69,0x74,0x63,0x68,0x69,0x69,0x3a,0x0c,0x40,0x76,0x6f,0x6c,0x75,0x6d,0x65,0x69,0x55))
  TeleportPlayer(0,2,262,160,0,0)
  0()



EVENT   4
 PAGE   1
  250(bytes(0x04,0x08,0x6f,0x3a,0x0c,0x52,0x50,0x47,0x3a,0x3a,0x53,0x45,0x08,0x3a,0x0a,0x40,0x6e,0x61,0x6d,0x65,0x49,0x22,0x09,0x4d,0x6f,0x76,0x65,0x06,0x3a,0x06,0x45,0x54,0x3a,0x0b,0x40,0x70,0x69,0x74,0x63,0x68,0x69,0x69,0x3a,0x0c,0x40,0x76,0x6f,0x6c,0x75,0x6d,0x65,0x69,0x55))
  TeleportPlayer(0,2,262,160,0,0)
  0()



EVENT   5
 PAGE   1
  250(bytes(0x04,0x08,0x6f,0x3a,0x0c,0x52,0x50,0x47,0x3a,0x3a,0x53,0x45,0x08,0x3a,0x0a,0x40,0x6e,0x61,0x6d,0x65,0x49,0x22,0x0a,0x43,0x68,0x65,0x73,0x74,0x06,0x3a,0x06,0x45,0x54,0x3a,0x0b,0x40,0x70,0x69,0x74,0x63,0x68,0x69,0x69,0x3a,0x0c,0x40,0x76,0x6f,0x6c,0x75,0x6d,0x65,0x69,0x55))
  205(0,bytes(0x04,0x08,0x6f,0x3a,0x13,0x52,0x50,0x47,0x3a,0x3a,0x4d,0x6f,0x76,0x65,0x52,0x6f,0x75,0x74,0x65,0x09,0x3a,0x0c,0x40,0x72,0x65,0x70,0x65,0x61,0x74,0x46,0x3a,0x0f,0x40,0x73,0x6b,0x69,0x70,0x70,0x61,0x62,0x6c,0x65,0x46,0x3a,0x0a,0x40,0x77,0x61,0x69,0x74,0x54,0x3a,0x0a,0x40,0x6c,0x69,0x73,0x74,0x5b,0x0b,0x6f,0x3a,0x15,0x52,0x50,0x47,0x3a,0x3a,0x4d,0x6f,0x76,0x65,0x43,0x6f,0x6d,0x6d,0x61,0x6e,0x64,0x07,0x3a,0x0a,0x40,0x63,0x6f,0x64,0x65,0x69,0x29,0x3a,0x10,0x40,0x70,0x61,0x72,0x61,0x6d,0x65,0x74,0x65,0x72,0x73,0x5b,0x00,0x6f,0x3b,0x0a,0x07,0x3b,0x0b,0x69,0x16,0x3b,0x0c,0x5b,0x00,0x6f,0x3b,0x0a,0x07,0x3b,0x0b,0x69,0x14,0x3b,0x0c,0x5b,0x06,0x69,0x08,0x6f,0x3b,0x0a,0x07,0x3b,0x0b,0x69,0x17,0x3b,0x0c,0x5b,0x00,0x6f,0x3b,0x0a,0x07,0x3b,0x0b,0x69,0x14,0x3b,0x0c,0x5b,0x06,0x69,0x08,0x6f,0x3b,0x0a,0x07,0x3b,0x0b,0x69,0x00,0x3b,0x0c,0x5b,0x00))
  ChangeSelfSwitch("A",0)
  ChangeInventory_Item(80,0,0,1)
  0()
 PAGE   2
  // condition: self-switch A is ON
  0()



EVENT   6
 PAGE   1
  250(bytes(0x04,0x08,0x6f,0x3a,0x0c,0x52,0x50,0x47,0x3a,0x3a,0x53,0x45,0x08,0x3a,0x0a,0x40,0x6e,0x61,0x6d,0x65,0x49,0x22,0x0a,0x43,0x68,0x65,0x73,0x74,0x06,0x3a,0x06,0x45,0x54,0x3a,0x0b,0x40,0x70,0x69,0x74,0x63,0x68,0x69,0x69,0x3a,0x0c,0x40,0x76,0x6f,0x6c,0x75,0x6d,0x65,0x69,0x55))
  205(0,bytes(0x04,0x08,0x6f,0x3a,0x13,0x52,0x50,0x47,0x3a,0x3a,0x4d,0x6f,0x76,0x65,0x52,0x6f,0x75,0x74,0x65,0x09,0x3a,0x0c,0x40,0x72,0x65,0x70,0x65,0x61,0x74,0x46,0x3a,0x0f,0x40,0x73,0x6b,0x69,0x70,0x70,0x61,0x62,0x6c,0x65,0x46,0x3a,0x0a,0x40,0x77,0x61,0x69,0x74,0x54,0x3a,0x0a,0x40,0x6c,0x69,0x73,0x74,0x5b,0x0b,0x6f,0x3a,0x15,0x52,0x50,0x47,0x3a,0x3a,0x4d,0x6f,0x76,0x65,0x43,0x6f,0x6d,0x6d,0x61,0x6e,0x64,0x07,0x3a,0x0a,0x40,0x63,0x6f,0x64,0x65,0x69,0x29,0x3a,0x10,0x40,0x70,0x61,0x72,0x61,0x6d,0x65,0x74,0x65,0x72,0x73,0x5b,0x00,0x6f,0x3b,0x0a,0x07,0x3b,0x0b,0x69,0x16,0x3b,0x0c,0x5b,0x00,0x6f,0x3b,0x0a,0x07,0x3b,0x0b,0x69,0x14,0x3b,0x0c,0x5b,0x06,0x69,0x08,0x6f,0x3b,0x0a,0x07,0x3b,0x0b,0x69,0x17,0x3b,0x0c,0x5b,0x00,0x6f,0x3b,0x0a,0x07,0x3b,0x0b,0x69,0x14,0x3b,0x0c,0x5b,0x06,0x69,0x08,0x6f,0x3b,0x0a,0x07,0x3b,0x0b,0x69,0x00,0x3b,0x0c,0x5b,0x00))
  ChangeSelfSwitch("A",0)
  ChangeInventory_Item(52,0,0,1)
  0()
 PAGE   2
  // condition: self-switch A is ON
  0()



EVENT   7
 PAGE   1
  250(bytes(0x04,0x08,0x6f,0x3a,0x0c,0x52,0x50,0x47,0x3a,0x3a,0x53,0x45,0x08,0x3a,0x0a,0x40,0x6e,0x61,0x6d,0x65,0x49,0x22,0x0a,0x43,0x68,0x65,0x73,0x74,0x06,0x3a,0x06,0x45,0x54,0x3a,0x0b,0x40,0x70,0x69,0x74,0x63,0x68,0x69,0x69,0x3a,0x0c,0x40,0x76,0x6f,0x6c,0x75,0x6d,0x65,0x69,0x55))
  205(0,bytes(0x04,0x08,0x6f,0x3a,0x13,0x52,0x50,0x47,0x3a,0x3a,0x4d,0x6f,0x76,0x65,0x52,0x6f,0x75,0x74,0x65,0x09,0x3a,0x0c,0x40,0x72,0x65,0x70,0x65,0x61,0x74,0x46,0x3a,0x0f,0x40,0x73,0x6b,0x69,0x70,0x70,0x61,0x62,0x6c,0x65,0x46,0x3a,0x0a,0x40,0x77,0x61,0x69,0x74,0x54,0x3a,0x0a,0x40,0x6c,0x69,0x73,0x74,0x5b,0x0b,0x6f,0x3a,0x15,0x52,0x50,0x47,0x3a,0x3a,0x4d,0x6f,0x76,0x65,0x43,0x6f,0x6d,0x6d,0x61,0x6e,0x64,0x07,0x3a,0x0a,0x40,0x63,0x6f,0x64,0x65,0x69,0x29,0x3a,0x10,0x40,0x70,0x61,0x72,0x61,0x6d,0x65,0x74,0x65,0x72,0x73,0x5b,0x00,0x6f,0x3b,0x0a,0x07,0x3b,0x0b,0x69,0x16,0x3b,0x0c,0x5b,0x00,0x6f,0x3b,0x0a,0x07,0x3b,0x0b,0x69,0x14,0x3b,0x0c,0x5b,0x06,0x69,0x08,0x6f,0x3b,0x0a,0x07,0x3b,0x0b,0x69,0x17,0x3b,0x0c,0x5b,0x00,0x6f,0x3b,0x0a,0x07,0x3b,0x0b,0x69,0x14,0x3b,0x0c,0x5b,0x06,0x69,0x08,0x6f,0x3b,0x0a,0x07,0x3b,0x0b,0x69,0x00,0x3b,0x0c,0x5b,0x00))
  ChangeSelfSwitch("A",0)
  ChangeInventory_Item(32,0,0,1)
  0()
 PAGE   2
  // condition: self-switch A is ON
  0()



EVENT   8
 PAGE   1
  If(12,"unlock_level < 1")
   ShowMessageFace("",0,0,2,1)
   ShowMessage("The chest is locked.")
   EndEventProcessing()
   0()
  EndIf()
  250(bytes(0x04,0x08,0x6f,0x3a,0x0c,0x52,0x50,0x47,0x3a,0x3a,0x53,0x45,0x08,0x3a,0x0a,0x40,0x6e,0x61,0x6d,0x65,0x49,0x22,0x0a,0x43,0x68,0x65,0x73,0x74,0x06,0x3a,0x06,0x45,0x54,0x3a,0x0b,0x40,0x70,0x69,0x74,0x63,0x68,0x69,0x69,0x3a,0x0c,0x40,0x76,0x6f,0x6c,0x75,0x6d,0x65,0x69,0x55))
  205(0,bytes(0x04,0x08,0x6f,0x3a,0x13,0x52,0x50,0x47,0x3a,0x3a,0x4d,0x6f,0x76,0x65,0x52,0x6f,0x75,0x74,0x65,0x09,0x3a,0x0c,0x40,0x72,0x65,0x70,0x65,0x61,0x74,0x46,0x3a,0x0f,0x40,0x73,0x6b,0x69,0x70,0x70,0x61,0x62,0x6c,0x65,0x46,0x3a,0x0a,0x40,0x77,0x61,0x69,0x74,0x54,0x3a,0x0a,0x40,0x6c,0x69,0x73,0x74,0x5b,0x0b,0x6f,0x3a,0x15,0x52,0x50,0x47,0x3a,0x3a,0x4d,0x6f,0x76,0x65,0x43,0x6f,0x6d,0x6d,0x61,0x6e,0x64,0x07,0x3a,0x0a,0x40,0x63,0x6f,0x64,0x65,0x69,0x29,0x3a,0x10,0x40,0x70,0x61,0x72,0x61,0x6d,0x65,0x74,0x65,0x72,0x73,0x5b,0x00,0x6f,0x3b,0x0a,0x07,0x3b,0x0b,0x69,0x16,0x3b,0x0c,0x5b,0x00,0x6f,0x3b,0x0a,0x07,0x3b,0x0b,0x69,0x14,0x3b,0x0c,0x5b,0x06,0x69,0x08,0x6f,0x3b,0x0a,0x07,0x3b,0x0b,0x69,0x17,0x3b,0x0c,0x5b,0x00,0x6f,0x3b,0x0a,0x07,0x3b,0x0b,0x69,0x14,0x3b,0x0c,0x5b,0x06,0x69,0x08,0x6f,0x3b,0x0a,0x07,0x3b,0x0b,0x69,0x00,0x3b,0x0c,0x5b,0x00))
  ChangeSelfSwitch("A",0)
  ChangeInventoryArmor(25,0,0,1)
  0()
 PAGE   2
  // condition: self-switch A is ON
  0()



EVENT   9
 PAGE   1
  250(bytes(0x04,0x08,0x6f,0x3a,0x0c,0x52,0x50,0x47,0x3a,0x3a,0x53,0x45,0x08,0x3a,0x0a,0x40,0x6e,0x61,0x6d,0x65,0x49,0x22,0x0a,0x43,0x68,0x65,0x73,0x74,0x06,0x3a,0x06,0x45,0x54,0x3a,0x0b,0x40,0x70,0x69,0x74,0x63,0x68,0x69,0x69,0x3a,0x0c,0x40,0x76,0x6f,0x6c,0x75,0x6d,0x65,0x69,0x55))
  205(0,bytes(0x04,0x08,0x6f,0x3a,0x13,0x52,0x50,0x47,0x3a,0x3a,0x4d,0x6f,0x76,0x65,0x52,0x6f,0x75,0x74,0x65,0x09,0x3a,0x0c,0x40,0x72,0x65,0x70,0x65,0x61,0x74,0x46,0x3a,0x0f,0x40,0x73,0x6b,0x69,0x70,0x70,0x61,0x62,0x6c,0x65,0x46,0x3a,0x0a,0x40,0x77,0x61,0x69,0x74,0x54,0x3a,0x0a,0x40,0x6c,0x69,0x73,0x74,0x5b,0x0b,0x6f,0x3a,0x15,0x52,0x50,0x47,0x3a,0x3a,0x4d,0x6f,0x76,0x65,0x43,0x6f,0x6d,0x6d,0x61,0x6e,0x64,0x07,0x3a,0x0a,0x40,0x63,0x6f,0x64,0x65,0x69,0x29,0x3a,0x10,0x40,0x70,0x61,0x72,0x61,0x6d,0x65,0x74,0x65,0x72,0x73,0x5b,0x00,0x6f,0x3b,0x0a,0x07,0x3b,0x0b,0x69,0x16,0x3b,0x0c,0x5b,0x00,0x6f,0x3b,0x0a,0x07,0x3b,0x0b,0x69,0x14,0x3b,0x0c,0x5b,0x06,0x69,0x08,0x6f,0x3b,0x0a,0x07,0x3b,0x0b,0x69,0x17,0x3b,0x0c,0x5b,0x00,0x6f,0x3b,0x0a,0x07,0x3b,0x0b,0x69,0x14,0x3b,0x0c,0x5b,0x06,0x69,0x08,0x6f,0x3b,0x0a,0x07,0x3b,0x0b,0x69,0x00,0x3b,0x0c,0x5b,0x00))
  ChangeSelfSwitch("A",0)
  ChangeInventoryArmor(1422,0,0,1)
  0()
 PAGE   2
  // condition: self-switch A is ON
  0()



EVENT   10
 PAGE   1
  250(bytes(0x04,0x08,0x6f,0x3a,0x0c,0x52,0x50,0x47,0x3a,0x3a,0x53,0x45,0x08,0x3a,0x0a,0x40,0x6e,0x61,0x6d,0x65,0x49,0x22,0x0a,0x43,0x68,0x65,0x73,0x74,0x06,0x3a,0x06,0x45,0x54,0x3a,0x0b,0x40,0x70,0x69,0x74,0x63,0x68,0x69,0x69,0x3a,0x0c,0x40,0x76,0x6f,0x6c,0x75,0x6d,0x65,0x69,0x55))
  205(0,bytes(0x04,0x08,0x6f,0x3a,0x13,0x52,0x50,0x47,0x3a,0x3a,0x4d,0x6f,0x76,0x65,0x52,0x6f,0x75,0x74,0x65,0x09,0x3a,0x0c,0x40,0x72,0x65,0x70,0x65,0x61,0x74,0x46,0x3a,0x0f,0x40,0x73,0x6b,0x69,0x70,0x70,0x61,0x62,0x6c,0x65,0x46,0x3a,0x0a,0x40,0x77,0x61,0x69,0x74,0x54,0x3a,0x0a,0x40,0x6c,0x69,0x73,0x74,0x5b,0x0b,0x6f,0x3a,0x15,0x52,0x50,0x47,0x3a,0x3a,0x4d,0x6f,0x76,0x65,0x43,0x6f,0x6d,0x6d,0x61,0x6e,0x64,0x07,0x3a,0x0a,0x40,0x63,0x6f,0x64,0x65,0x69,0x29,0x3a,0x10,0x40,0x70,0x61,0x72,0x61,0x6d,0x65,0x74,0x65,0x72,0x73,0x5b,0x00,0x6f,0x3b,0x0a,0x07,0x3b,0x0b,0x69,0x16,0x3b,0x0c,0x5b,0x00,0x6f,0x3b,0x0a,0x07,0x3b,0x0b,0x69,0x14,0x3b,0x0c,0x5b,0x06,0x69,0x08,0x6f,0x3b,0x0a,0x07,0x3b,0x0b,0x69,0x17,0x3b,0x0c,0x5b,0x00,0x6f,0x3b,0x0a,0x07,0x3b,0x0b,0x69,0x14,0x3b,0x0c,0x5b,0x06,0x69,0x08,0x6f,0x3b,0x0a,0x07,0x3b,0x0b,0x69,0x00,0x3b,0x0c,0x5b,0x00))
  ChangeSelfSwitch("A",0)
  ChangeInventory_Item(24,0,0,1)
  0()
 PAGE   2
  // condition: self-switch A is ON
  0()



EVENT   11
 PAGE   1
  250(bytes(0x04,0x08,0x6f,0x3a,0x0c,0x52,0x50,0x47,0x3a,0x3a,0x53,0x45,0x08,0x3a,0x0a,0x40,0x6e,0x61,0x6d,0x65,0x49,0x22,0x0a,0x43,0x68,0x65,0x73,0x74,0x06,0x3a,0x06,0x45,0x54,0x3a,0x0b,0x40,0x70,0x69,0x74,0x63,0x68,0x69,0x69,0x3a,0x0c,0x40,0x76,0x6f,0x6c,0x75,0x6d,0x65,0x69,0x55))
  205(0,bytes(0x04,0x08,0x6f,0x3a,0x13,0x52,0x50,0x47,0x3a,0x3a,0x4d,0x6f,0x76,0x65,0x52,0x6f,0x75,0x74,0x65,0x09,0x3a,0x0c,0x40,0x72,0x65,0x70,0x65,0x61,0x74,0x46,0x3a,0x0f,0x40,0x73,0x6b,0x69,0x70,0x70,0x61,0x62,0x6c,0x65,0x46,0x3a,0x0a,0x40,0x77,0x61,0x69,0x74,0x54,0x3a,0x0a,0x40,0x6c,0x69,0x73,0x74,0x5b,0x0b,0x6f,0x3a,0x15,0x52,0x50,0x47,0x3a,0x3a,0x4d,0x6f,0x76,0x65,0x43,0x6f,0x6d,0x6d,0x61,0x6e,0x64,0x07,0x3a,0x0a,0x40,0x63,0x6f,0x64,0x65,0x69,0x29,0x3a,0x10,0x40,0x70,0x61,0x72,0x61,0x6d,0x65,0x74,0x65,0x72,0x73,0x5b,0x00,0x6f,0x3b,0x0a,0x07,0x3b,0x0b,0x69,0x16,0x3b,0x0c,0x5b,0x00,0x6f,0x3b,0x0a,0x07,0x3b,0x0b,0x69,0x14,0x3b,0x0c,0x5b,0x06,0x69,0x08,0x6f,0x3b,0x0a,0x07,0x3b,0x0b,0x69,0x17,0x3b,0x0c,0x5b,0x00,0x6f,0x3b,0x0a,0x07,0x3b,0x0b,0x69,0x14,0x3b,0x0c,0x5b,0x06,0x69,0x08,0x6f,0x3b,0x0a,0x07,0x3b,0x0b,0x69,0x00,0x3b,0x0c,0x5b,0x00))
  ChangeSelfSwitch("A",0)
  ChangeInventory_Item(22,0,0,1)
  0()
 PAGE   2
  // condition: self-switch A is ON
  0()



EVENT   12
 PAGE   1
  250(bytes(0x04,0x08,0x6f,0x3a,0x0c,0x52,0x50,0x47,0x3a,0x3a,0x53,0x45,0x08,0x3a,0x0a,0x40,0x6e,0x61,0x6d,0x65,0x49,0x22,0x0a,0x43,0x68,0x65,0x73,0x74,0x06,0x3a,0x06,0x45,0x54,0x3a,0x0b,0x40,0x70,0x69,0x74,0x63,0x68,0x69,0x69,0x3a,0x0c,0x40,0x76,0x6f,0x6c,0x75,0x6d,0x65,0x69,0x55))
  205(0,bytes(0x04,0x08,0x6f,0x3a,0x13,0x52,0x50,0x47,0x3a,0x3a,0x4d,0x6f,0x76,0x65,0x52,0x6f,0x75,0x74,0x65,0x09,0x3a,0x0c,0x40,0x72,0x65,0x70,0x65,0x61,0x74,0x46,0x3a,0x0f,0x40,0x73,0x6b,0x69,0x70,0x70,0x61,0x62,0x6c,0x65,0x46,0x3a,0x0a,0x40,0x77,0x61,0x69,0x74,0x54,0x3a,0x0a,0x40,0x6c,0x69,0x73,0x74,0x5b,0x0b,0x6f,0x3a,0x15,0x52,0x50,0x47,0x3a,0x3a,0x4d,0x6f,0x76,0x65,0x43,0x6f,0x6d,0x6d,0x61,0x6e,0x64,0x07,0x3a,0x0a,0x40,0x63,0x6f,0x64,0x65,0x69,0x29,0x3a,0x10,0x40,0x70,0x61,0x72,0x61,0x6d,0x65,0x74,0x65,0x72,0x73,0x5b,0x00,0x6f,0x3b,0x0a,0x07,0x3b,0x0b,0x69,0x16,0x3b,0x0c,0x5b,0x00,0x6f,0x3b,0x0a,0x07,0x3b,0x0b,0x69,0x14,0x3b,0x0c,0x5b,0x06,0x69,0x08,0x6f,0x3b,0x0a,0x07,0x3b,0x0b,0x69,0x17,0x3b,0x0c,0x5b,0x00,0x6f,0x3b,0x0a,0x07,0x3b,0x0b,0x69,0x14,0x3b,0x0c,0x5b,0x06,0x69,0x08,0x6f,0x3b,0x0a,0x07,0x3b,0x0b,0x69,0x00,0x3b,0x0c,0x5b,0x00))
  ChangeSelfSwitch("A",0)
  ChangeInventory_Item(221,0,0,1)
  0()
 PAGE   2
  // condition: self-switch A is ON
  0()



EVENT   13
 PAGE   1
  ChangeSelfSwitch("A",0)
  If(0,4,0)
   ShowMessageFace("alice_fc5",0,0,2,1)
   ShowMessage("\\n<Alice>What business do we have here? We should hurry to Goddard.")
   0()
  EndIf()
  If(0,5,0)
   ShowMessageFace("iriasu_fc4",2,0,2,2)
   ShowMessage("\\n<Ilias>What business do we have in a place like this? Let's return to Goddard without any more detours.")
   0()
  EndIf()
  EndEventProcessing()
  0()
 PAGE   2
  // condition: self-switch A is ON
  0()
 PAGE   3
  // condition: variable 1063 >= 7
  ChangeSelfSwitch("B",0)
  If(0,4,0)
   ShowMessageFace("alice_fc5",0,0,2,1)
   ShowMessage("\\n<Alice>This is where we were told to meet with our support, though I wish they had chosen practically anywhere else...")
   0()
  EndIf()
  If(0,5,0)
   ShowMessageFace("iriasu_fc4",2,0,2,2)
   ShowMessage("\\n<Ilias>This is where we were told to meet with our support, though why choose such a repulsive place...")
   0()
  EndIf()
  If(4,53,0)
   ShowMessageFace("slime_fc1",2,0,2,3)
   ShowMessage("\\n<Lime>I'm having flashbacks!")
   0()
  EndIf()
  If(4,134,0)
   ShowMessageFace("chrom_fc2",1,0,2,4)
   ShowMessage("\\n<Chrome>Necromancers like me feel right at home here...\nUlp... *cough* *cough*")
   ShowMessageFace("frederika_fc1",0,0,2,5)
   ShowMessage("\\n<Frederica>Chrome... Don't overexert yourself...")
   0()
  EndIf()
  If(0,6,0)
   ShowMessageFace("sonia_fc1",0,0,2,6)
   ShowMessage("\\n<Sonya>We have to get rid of those golems guarding the March Hills someway or another. I wonder what this person helping us is going to be like...")
   0()
  Else()
   ShowMessageFace("ruka_fc1",0,0,2,7)
   ShowMessage("\\n<Luka>We need to defeat the golems guarding the March Hills, and this is where our help chose. I wonder what they're like...")
   0()
  EndIf()
  If(0,4,0)
   ShowMessageFace("alice_fc5",0,0,2,8)
   ShowMessage("\\n<Alice>Who knows... Some kind of magic specialist, I guess. We'll find out once we meet.")
   0()
  EndIf()
  If(0,5,0)
   ShowMessageFace("iriasu_fc4",2,0,2,9)
   ShowMessage("\\n<Ilias>Probably some kind of magic specialist...\nAt any rate, we'll know as soon as we meet them.")
   0()
  EndIf()
  If(4,163,0)
   ShowMessageFace("lily_fc1",3,0,2,10)
   ShowMessage("\\n<Lily>A magic specialist, huh...\nIf they're a waste of my time, I'm going to suck them dry.")
   0()
  EndIf()
  EndEventProcessing()
  0()
 PAGE   4
  // condition: self-switch B is ON
  0()
 PAGE   5
  // condition: variable 1078 >= 2
  ChangeVariable(1078,1078,0,0,3)
  If(0,4,0)
   ShowMessageFace("alice_fc5",2,0,2,1)
   ShowMessage("\\n<Alice>すでに、魔法少女のバトルロイヤルは始まっているみたいだな。")
   ShowMessage("我々も敵を探し、ぶちのめすぞ！")
   0()
  EndIf()
  If(0,5,0)
   ShowMessageFace("iriasu_fc4",1,0,2,2)
   ShowMessage("\\n<Ilias>すでに魔法少女のバトルロイヤルは始まっているようですね。")
   ShowMessage("さあ、相手を片っ端からぶちのめしましょう！")
   0()
  EndIf()
  If(4,171,0)
   ShowMessageFace("lizardboss_fc1",0,0,2,3)
   ShowMessage("\\n<Miranda>さあ、片っ端から斬るよ！")
   0()
  EndIf()
  If(4,202,0)
   ShowMessageFace("bonny_fc1",1,0,2,4)
   ShowMessage("\\n<Bonnie>よし、ガンガン行くぞ～！")
   0()
  EndIf()
  If(0,6,0)
   ShowMessageFace("sonia_fc2",2,0,2,5)
   ShowMessage("\\n<Sonya>いいのかな、こんなノリで……")
   0()
  Else()
   ShowMessageFace("ruka_fc1",0,0,2,6)
   ShowMessage("\\n<Luka>いいのかな、こんなノリで……")
   0()
  EndIf()
  0()
 PAGE   6
  // condition: variable 1078 >= 3
  0()



EVENT   14
 PAGE   1
  // condition: variable 1063 >= 7
  241(bytes(0x04,0x08,0x6f,0x3a,0x0d,0x52,0x50,0x47,0x3a,0x3a,0x42,0x47,0x4d,0x08,0x3a,0x0a,0x40,0x6e,0x61,0x6d,0x65,0x49,0x22,0x0a,0x6b,0x69,0x6b,0x69,0x32,0x06,0x3a,0x06,0x45,0x54,0x3a,0x0c,0x40,0x76,0x6f,0x6c,0x75,0x6d,0x65,0x69,0x69,0x3a,0x0b,0x40,0x70,0x69,0x74,0x63,0x68,0x69,0x69))
  PictureDisplay(5,"80_mefist_st01",0,0,0,0,100,100,0,0)
  PictureMove(5,null,0,0,0,0,100,100,255,0,60,true)
  ShowMessageFace("mefist_fc1",0,0,2,1)
  ShowMessage("\\n<Mephisto>My apologies for making you come all the way out here. I had to avoid being spotted at all costs.")
  If(4,231,0)
   ShowMessageFace("bugstaff_fc1",2,0,2,2)
   ShowMessage("\\n<Bugstaves>Headmaster!?")
   0()
  EndIf()
  If(4,232,0)
   ShowMessageFace("magistans_fc1",0,0,2,3)
   ShowMessage("\\n<Magi Staens>Look, it's the headmaster...")
   0()
  EndIf()
  If(0,4,0)
   ShowMessageFace("alice_fc5",6,0,2,4)
   ShowMessage("\\n<Alice>Mephisto!? You're the one helping us?")
   0()
  EndIf()
  If(0,5,0)
   ShowMessageFace("iriasu_fc4",5,0,2,5)
   ShowMessage("\\n<Ilias>It's Mephisto!? You're the one here to help us...?")
   0()
  EndIf()
  ShowMessageFace("mefist_fc1",0,0,2,6)
  ShowMessage("\\n<Mephisto>Yes, I'm the anti-golem specialist. Do you know anyone more of an authority on magic than me?")
  If(4,167,0)
   ShowMessageFace("lusia_fc1",2,0,2,7)
   ShowMessage("\\n<Lucia>We certainly can't question your credentials.\nYour loyalty is quite a different story, however.")
   0()
  EndIf()
  ShowMessageFace("mefist_fc1",0,0,2,8)
  ShowMessage("\\n<Mephisto>Well then, let's be off.\nI'll be traveling with you from here on...")
  PictureClear(5)
  205(0,bytes(0x04,0x08,0x6f,0x3a,0x13,0x52,0x50,0x47,0x3a,0x3a,0x4d,0x6f,0x76,0x65,0x52,0x6f,0x75,0x74,0x65,0x09,0x3a,0x0c,0x40,0x72,0x65,0x70,0x65,0x61,0x74,0x46,0x3a,0x0f,0x40,0x73,0x6b,0x69,0x70,0x70,0x61,0x62,0x6c,0x65,0x46,0x3a,0x0a,0x40,0x77,0x61,0x69,0x74,0x54,0x3a,0x0a,0x40,0x6c,0x69,0x73,0x74,0x5b,0x09,0x6f,0x3a,0x15,0x52,0x50,0x47,0x3a,0x3a,0x4d,0x6f,0x76,0x65,0x43,0x6f,0x6d,0x6d,0x61,0x6e,0x64,0x07,0x3a,0x0a,0x40,0x63,0x6f,0x64,0x65,0x69,0x2a,0x3a,0x10,0x40,0x70,0x61,0x72,0x61,0x6d,0x65,0x74,0x65,0x72,0x73,0x5b,0x00,0x6f,0x3b,0x0a,0x07,0x3b,0x0b,0x69,0x0f,0x3b,0x0c,0x5b,0x00,0x6f,0x3b,0x0a,0x07,0x3b,0x0b,0x69,0x2c,0x3b,0x0c,0x5b,0x00,0x6f,0x3b,0x0a,0x07,0x3b,0x0b,0x69,0x00,0x3b,0x0c,0x5b,0x00))
  355("add_actor_ex(233)")
  249(bytes(0x04,0x08,0x6f,0x3a,0x0c,0x52,0x50,0x47,0x3a,0x3a,0x4d,0x45,0x08,0x3a,0x0a,0x40,0x6e,0x61,0x6d,0x65,0x49,0x22,0x0c,0x66,0x61,0x6e,0x66,0x61,0x6c,0x65,0x06,0x3a,0x06,0x45,0x54,0x3a,0x0b,0x40,0x70,0x69,0x74,0x63,0x68,0x69,0x69,0x3a,0x0c,0x40,0x76,0x6f,0x6c,0x75,0x6d,0x65,0x69,0x69))
  ShowMessageFace("",0,0,2,9)
  ShowMessage("Mephisto has joined the party!")
  ChangeVariable(1063,1063,0,0,8)
  Wait(60)
  If(0,6,0)
   241(bytes(0x04,0x08,0x6f,0x3a,0x0d,0x52,0x50,0x47,0x3a,0x3a,0x42,0x47,0x4d,0x08,0x3a,0x0a,0x40,0x6e,0x61,0x6d,0x65,0x49,0x22,0x10,0x73,0x63,0x65,0x6e,0x65,0x5f,0x63,0x6f,0x6d,0x69,0x32,0x06,0x3a,0x06,0x45,0x54,0x3a,0x0c,0x40,0x76,0x6f,0x6c,0x75,0x6d,0x65,0x69,0x69,0x3a,0x0b,0x40,0x70,0x69,0x74,0x63,0x68,0x69,0x69))
   ShowMessageFace("sonia_fc1",5,0,2,10)
   ShowMessage("\\n<Sonya>I don't trust her at all...\nShe's a traitor, isn't she? She's going to betray us, isn't she?")
   ShowMessageFace("mefist_fc1",0,0,2,11)
   ShowMessage("\\n<Mephisto>You haven't played enough games, little lady. Characters who obviously seem like traitors never betray the party.")
   ShowMessageFace("mefist_fc1",0,0,2,12)
   ShowMessage("\\n<Mephisto>You should be much more suspicious of your closest companions, like the ones who joined your adventure from the beginning, your childhood friend, et cetera...")
   ShowMessageFace("sonia_fc2",4,0,2,13)
   ShowMessage("\\n<Sonya>GRRRRR!")
   ShowMessageFace("ruka_fc1",0,0,2,14)
   ShowMessage("\\n<Luka>Don't rile Sonya up...")
   0()
  EndIf()
  241(bytes(0x04,0x08,0x6f,0x3a,0x0d,0x52,0x50,0x47,0x3a,0x3a,0x42,0x47,0x4d,0x08,0x3a,0x0a,0x40,0x6e,0x61,0x6d,0x65,0x49,0x22,0x15,0x64,0x75,0x6e,0x67,0x65,0x6f,0x6e,0x5f,0x70,0x6c,0x61,0x6e,0x73,0x65,0x63,0x74,0x06,0x3a,0x06,0x45,0x54,0x3a,0x0c,0x40,0x76,0x6f,0x6c,0x75,0x6d,0x65,0x69,0x69,0x3a,0x0b,0x40,0x70,0x69,0x74,0x63,0x68,0x69,0x69))
  If(0,4,0)
   ShowMessageFace("alice_fc5",0,0,2,15)
   ShowMessage("\\n<Alice>Okay, let's head towards the March Hills. They're just northwest of this swamp.")
   0()
  EndIf()
  If(0,5,0)
   ShowMessageFace("iriasu_fc4",0,0,2,16)
   ShowMessage("\\n<Ilias>All right, shall we head towards the March Hills? They're just northwest of this swamp.")
   0()
  EndIf()
  ShowMessageFace("mefist_fc1",0,0,2,17)
  ShowMessage("\\n<Mephisto>As you know, we'll be in the enemy capital of Grangold after we traverse the hills. It's a rather long trek, so make sure you stock up beforehand.")
  If(4,185,0)
   ShowMessageFace("radio_fc1",0,0,2,18)
   ShowMessage("\\n<Radio>Don't spend all your money in one place...")
   0()
  EndIf()
  0()
 PAGE   2
  // condition: variable 1063 >= 8
  0()



EVENT   16
 PAGE   1
  // condition: variable 1078 >= 3
  RunCommonEvent(344)
  0()
 PAGE   2
  // condition: variable 1078 >= 4
  0()



EVENT   17
 PAGE   1
  // condition: variable 1078 >= 3
  RunCommonEvent(344)
  0()
 PAGE   2
  // condition: variable 1078 >= 4
  0()



EVENT   18
 PAGE   1
  // condition: variable 1078 >= 4
  241(bytes(0x04,0x08,0x6f,0x3a,0x0d,0x52,0x50,0x47,0x3a,0x3a,0x42,0x47,0x4d,0x08,0x3a,0x0a,0x40,0x6e,0x61,0x6d,0x65,0x49,0x22,0x0a,0x62,0x6f,0x73,0x73,0x30,0x06,0x3a,0x06,0x45,0x54,0x3a,0x0c,0x40,0x76,0x6f,0x6c,0x75,0x6d,0x65,0x69,0x69,0x3a,0x0b,0x40,0x70,0x69,0x74,0x63,0x68,0x69,0x69))
  PictureDisplay(5,"80_witchs_st11",0,0,0,0,100,100,0,0)
  PictureMove(5,null,0,0,0,0,100,100,255,0,30,true)
  ShowMessageFace("witchs_fc1",0,0,2,1)
  ShowMessage("\\n<ウィッチサキュバス>あなた達が、最後に残った魔法少女候補かしら……？")
  ShowMessage("でも、魔法少女の座は私が頂くわ。")
  If(0,4,0)
   ShowMessageFace("alice_fc5",6,0,2,2)
   ShowMessage("\\n<Alice>だから、歳を考えろ！　歳を！")
   0()
  EndIf()
  If(0,5,0)
   ShowMessageFace("iriasu_fc4",2,0,2,3)
   ShowMessage("\\n<Ilias>少女……？")
   ShowMessage("どこに少女が……？")
   0()
  EndIf()
  ShowMessageFace("witchs_fc1",0,0,2,4)
  ShowMessage("\\n<ウィッチサキュバス>本当、失礼な言い草よねぇ……")
  ShowMessage("心が少女なら、魔法少女の資格はあるのよ。")
  If(0,6,0)
   ShowMessageFace("sonia_fc2",2,0,2,5)
   ShowMessage("\\n<Sonya>この一件、色々とツッコミ疲れた……")
   ShowMessage("もう私が魔法少女って事でいいんじゃない？")
   If(0,4,0)
    ShowMessageFace("alice_fc5",5,0,2,6)
    ShowMessage("\\n<Alice>貴様が一番、魔法少女ってガラじゃないわ。")
    0()
   EndIf()
   If(0,5,0)
    ShowMessageFace("iriasu_fc4",2,0,2,7)
    ShowMessage("\\n<Ilias>あなたが一番、魔法少女というガラではないです。")
    0()
   EndIf()
   ShowMessageFace("sonia_fc3",2,0,2,8)
   ShowMessage("\\n<Sonya>ひどい！")
   0()
  EndIf()
  ShowMessageFace("ruka_fc1",0,0,2,9)
  ShowMessage("\\n<Luka>と、とにかく……魔法少女の力は危険すぎるんだ。")
  ShowMessage("だから、僕達が手に入れて管理する！")
  ShowMessageFace("witchs_fc1",0,0,2,10)
  ShowMessage("\\n<ウィッチサキュバス>それも、相当に勝手な理屈よね……")
  ShowMessage("まあ、適任者を決めるのは言い争いじゃないわ。")
  PictureDisplay(5,"80_witchs_st12",0,0,0,0,100,100,255,0)
  ShowMessageFace("witchs_fc1",1,0,2,11)
  ShowMessage("\\n<ウィッチサキュバス>さあ、力を競いましょう……")
  ShowMessage("どちらが魔法少女に相応しいか教えてあげるわ、勇者クン♪")
  ShowMessageFace("ruka_fc1",0,0,2,12)
  ShowMessage("\\n<Luka>ぼ、僕じゃないよ！")
  If(4,287,0)
   ShowMessageFace("succubus_fc1",0,0,2,13)
   ShowMessage("\\n<Succubus>こんな所にいたのね、ウィッチ。")
   ShowMessage("あなたと戦う事になるなんて、心苦しいわ……")
   ShowMessageFace("witchs_fc1",3,0,2,14)
   ShowMessage("\\n<ウィッチサキュバス>村長、あなたまで魔法少女になりたいんですか……？")
   ShowMessage("お歳を考えた方が……")
   ShowMessageFace("succubus_fc1",3,0,2,15)
   ShowMessage("\\n<Succubus>全力で叩きのめします！")
   0()
  EndIf()
  If(4,286,0)
   ShowMessageFace("witchs_fc1",0,0,2,16)
   ShowMessage("\\n<ウィッチ>こうして、自分に会うのは不思議な気持ちね……")
   ShowMessageFace("witchs_fc1",3,0,2,17)
   ShowMessage("\\n<ウィッチサキュバス>私がもう一人？")
   ShowMessage("これは変化の術？　それとも、私の知らない何か……？")
   ShowMessageFace("witchs_fc1",1,0,2,18)
   ShowMessage("\\n<ウィッチ>私に勝てたら、教えてあげる……♪")
   ShowMessageFace("witchs_fc1",1,0,2,19)
   ShowMessage("\\n<ウィッチサキュバス>それは楽しみね、がんばっちゃおうかしら……♪")
   0()
  EndIf()
  PictureClear(5)
  SetBattleBGM(bytes(0x04,0x08,0x6f,0x3a,0x0d,0x52,0x50,0x47,0x3a,0x3a,0x42,0x47,0x4d,0x08,0x3a,0x0a,0x40,0x6e,0x61,0x6d,0x65,0x49,0x22,0x0a,0x62,0x6f,0x73,0x73,0x31,0x06,0x3a,0x06,0x45,0x54,0x3a,0x0c,0x40,0x76,0x6f,0x6c,0x75,0x6d,0x65,0x69,0x69,0x3a,0x0b,0x40,0x70,0x69,0x74,0x63,0x68,0x69,0x69))
  ChangeSwitch(22,22,0)
  Battle(0,771,false,false)
  ChangeSwitch(22,22,1)
  SetBattleBGM(bytes(0x04,0x08,0x6f,0x3a,0x0d,0x52,0x50,0x47,0x3a,0x3a,0x42,0x47,0x4d,0x08,0x3a,0x0a,0x40,0x6e,0x61,0x6d,0x65,0x49,0x22,0x0b,0x62,0x61,0x74,0x74,0x6c,0x65,0x06,0x3a,0x06,0x45,0x54,0x3a,0x0c,0x40,0x76,0x6f,0x6c,0x75,0x6d,0x65,0x69,0x69,0x3a,0x0b,0x40,0x70,0x69,0x74,0x63,0x68,0x69,0x69))
  314(0,0)
  281(1)
  TeleportPlayer(0,309,17,12,8,2)
  241(bytes(0x04,0x08,0x6f,0x3a,0x0d,0x52,0x50,0x47,0x3a,0x3a,0x42,0x47,0x4d,0x08,0x3a,0x0a,0x40,0x6e,0x61,0x6d,0x65,0x49,0x22,0x14,0x73,0x63,0x65,0x6e,0x65,0x5f,0x65,0x70,0x69,0x6c,0x6f,0x67,0x75,0x65,0x32,0x06,0x3a,0x06,0x45,0x54,0x3a,0x0c,0x40,0x76,0x6f,0x6c,0x75,0x6d,0x65,0x69,0x69,0x3a,0x0b,0x40,0x70,0x69,0x74,0x63,0x68,0x69,0x69))
  PictureDisplay(5,"80_witchs_st13",0,0,0,0,100,100,0,0)
  PictureMove(5,null,0,0,0,0,100,100,255,0,30,true)
  217()
  216(1)
  ShowMessageFace("witchs_fc1",3,0,2,20)
  ShowMessage("\\n<ウィッチサキュバス>私の魔力が及ばないなんて……")
  ShowMessage("勇者クン、魔法少女に相応しいのはあなたのようね。")
  ShowMessageFace("ruka_fc1",0,0,2,21)
  ShowMessage("\\n<Luka>ぼ、僕じゃないよ！")
  PictureClear(5)
  Wait(60)
  250(bytes(0x04,0x08,0x6f,0x3a,0x0c,0x52,0x50,0x47,0x3a,0x3a,0x53,0x45,0x08,0x3a,0x0a,0x40,0x6e,0x61,0x6d,0x65,0x49,0x22,0x0b,0x4d,0x61,0x67,0x69,0x63,0x31,0x06,0x3a,0x06,0x45,0x54,0x3a,0x0b,0x40,0x70,0x69,0x74,0x63,0x68,0x69,0x69,0x3a,0x0c,0x40,0x76,0x6f,0x6c,0x75,0x6d,0x65,0x69,0x55))
  ChangeSwitch(31,31,0)
  205(-1,bytes(0x04,0x08,0x6f,0x3a,0x13,0x52,0x50,0x47,0x3a,0x3a,0x4d,0x6f,0x76,0x65,0x52,0x6f,0x75,0x74,0x65,0x09,0x3a,0x0c,0x40,0x72,0x65,0x70,0x65,0x61,0x74,0x46,0x3a,0x0f,0x40,0x73,0x6b,0x69,0x70,0x70,0x61,0x62,0x6c,0x65,0x46,0x3a,0x0a,0x40,0x77,0x61,0x69,0x74,0x54,0x3a,0x0a,0x40,0x6c,0x69,0x73,0x74,0x5b,0x07,0x6f,0x3a,0x15,0x52,0x50,0x47,0x3a,0x3a,0x4d,0x6f,0x76,0x65,0x43,0x6f,0x6d,0x6d,0x61,0x6e,0x64,0x07,0x3a,0x0a,0x40,0x63,0x6f,0x64,0x65,0x69,0x15,0x3a,0x10,0x40,0x70,0x61,0x72,0x61,0x6d,0x65,0x74,0x65,0x72,0x73,0x5b,0x00,0x6f,0x3b,0x0a,0x07,0x3b,0x0b,0x69,0x00,0x3b,0x0c,0x5b,0x00))
  Wait(60)
  PictureDisplay(5,"80_mob_marin_st01",0,0,0,0,100,100,0,0)
  PictureMove(5,null,0,0,0,0,100,100,255,0,30,true)
  ShowMessageFace("mob_mahousyouzyo_fc1",0,0,2,22)
  ShowMessage("\\n<マジカルまりんちゃん>新たな魔法少女が決まったみたいだね！")
  ShowMessage("おめでとう、勇者ルカ君♪")
  ShowMessageFace("ruka_fc1",0,0,2,23)
  ShowMessage("\\n<Luka>ぼ、僕じゃないよ！")
  If(0,4,0)
   ShowMessageFace("alice_fc5",0,0,2,24)
   ShowMessage("\\n<Alice>諦めろ、貴様だ。")
   0()
  EndIf()
  If(0,5,0)
   ShowMessageFace("iriasu_fc4",0,0,2,25)
   ShowMessage("\\n<Ilias>認めなさい、貴方です。")
   0()
  EndIf()
  ShowMessageFace("mob_mahousyouzyo_fc1",0,0,2,26)
  ShowMessage("\\n<マジカルまりんちゃん>それじゃあ、怨念パワーを授けるよ。")
  ShowMessage("ルカ君、準備はいいかな？")
  ShowMessageFace("ruka_fc1",0,0,2,27)
  ShowMessage("\\n<Luka>結局、僕なのか……")
  ShowMessage("しかも、怨念パワーって言ったよね……")
  250(bytes(0x04,0x08,0x6f,0x3a,0x0c,0x52,0x50,0x47,0x3a,0x3a,0x53,0x45,0x08,0x3a,0x0a,0x40,0x6e,0x61,0x6d,0x65,0x49,0x22,0x0b,0x4d,0x61,0x67,0x69,0x63,0x32,0x06,0x3a,0x06,0x45,0x54,0x3a,0x0b,0x40,0x70,0x69,0x74,0x63,0x68,0x69,0x69,0x3a,0x0c,0x40,0x76,0x6f,0x6c,0x75,0x6d,0x65,0x69,0x55))
  ShowMessageFace("mob_mahousyouzyo_fc1",0,0,2,28)
  ShowMessage("\\n<マジカルまりんちゃん>怨念を集めて……ルカ君、しっかり受け止めてね。")
  ShowMessage("気を緩ませると暴発しちゃうよ、初体験のキミみたいに。")
  ShowMessageFace("ruka_fc1",0,0,2,29)
  ShowMessage("\\n<Luka>今度はセクハラだ……")
  ShowMessage("もういい、全て受け止めるよ……")
  ShowMessageFace("mob_mahousyouzyo_fc1",0,0,2,30)
  ShowMessage("\\n<マジカルまりんちゃん>むぅぅぅ～～ん……")
  PictureClear(5)
  242(1)
  ShowMessageFace("",0,0,2,31)
  ShowMessage("\\n<？？？>待て！　その儀式、阻止させてもらう！")
  241(bytes(0x04,0x08,0x6f,0x3a,0x0d,0x52,0x50,0x47,0x3a,0x3a,0x42,0x47,0x4d,0x08,0x3a,0x0a,0x40,0x6e,0x61,0x6d,0x65,0x49,0x22,0x0a,0x6b,0x69,0x6b,0x69,0x31,0x06,0x3a,0x06,0x45,0x54,0x3a,0x0c,0x40,0x76,0x6f,0x6c,0x75,0x6d,0x65,0x69,0x69,0x3a,0x0b,0x40,0x70,0x69,0x74,0x63,0x68,0x69,0x69))
  250(bytes(0x04,0x08,0x6f,0x3a,0x0c,0x52,0x50,0x47,0x3a,0x3a,0x53,0x45,0x08,0x3a,0x0a,0x40,0x6e,0x61,0x6d,0x65,0x49,0x22,0x0d,0x6d,0x6f,0x6e,0x5f,0x77,0x61,0x72,0x70,0x06,0x3a,0x06,0x45,0x54,0x3a,0x0b,0x40,0x70,0x69,0x74,0x63,0x68,0x69,0x69,0x3a,0x0c,0x40,0x76,0x6f,0x6c,0x75,0x6d,0x65,0x69,0x55))
  ChangeSwitch(32,32,0)
  ShowMessageFace("granberia_fc3",4,0,2,32)
  ShowMessage("\\n<グランベリア>はぁっ！")
  250(bytes(0x04,0x08,0x6f,0x3a,0x0c,0x52,0x50,0x47,0x3a,0x3a,0x53,0x45,0x08,0x3a,0x0a,0x40,0x6e,0x61,0x6d,0x65,0x49,0x22,0x11,0x6d,0x6f,0x6e,0x5f,0x6b,0x61,0x72,0x61,0x62,0x75,0x72,0x69,0x06,0x3a,0x06,0x45,0x54,0x3a,0x0b,0x40,0x70,0x69,0x74,0x63,0x68,0x69,0x69,0x3a,0x0c,0x40,0x76,0x6f,0x6c,0x75,0x6d,0x65,0x69,0x55))
  205(20,bytes(0x04,0x08,0x6f,0x3a,0x13,0x52,0x50,0x47,0x3a,0x3a,0x4d,0x6f,0x76,0x65,0x52,0x6f,0x75,0x74,0x65,0x09,0x3a,0x0c,0x40,0x72,0x65,0x70,0x65,0x61,0x74,0x46,0x3a,0x0f,0x40,0x73,0x6b,0x69,0x70,0x70,0x61,0x62,0x6c,0x65,0x46,0x3a,0x0a,0x40,0x77,0x61,0x69,0x74,0x54,0x3a,0x0a,0x40,0x6c,0x69,0x73,0x74,0x5b,0x09,0x6f,0x3a,0x15,0x52,0x50,0x47,0x3a,0x3a,0x4d,0x6f,0x76,0x65,0x43,0x6f,0x6d,0x6d,0x61,0x6e,0x64,0x07,0x3a,0x0a,0x40,0x63,0x6f,0x64,0x65,0x69,0x22,0x3a,0x10,0x40,0x70,0x61,0x72,0x61,0x6d,0x65,0x74,0x65,0x72,0x73,0x5b,0x06,0x69,0x0b,0x6f,0x3b,0x0a,0x07,0x3b,0x0b,0x69,0x23,0x3b,0x0c,0x5b,0x06,0x69,0x0a,0x6f,0x3b,0x0a,0x07,0x3b,0x0b,0x69,0x08,0x3b,0x0c,0x5b,0x00,0x6f,0x3b,0x0a,0x07,0x3b,0x0b,0x69,0x00,0x3b,0x0c,0x5b,0x00))
  250(bytes(0x04,0x08,0x6f,0x3a,0x0c,0x52,0x50,0x47,0x3a,0x3a,0x53,0x45,0x08,0x3a,0x0a,0x40,0x6e,0x61,0x6d,0x65,0x49,0x22,0x10,0x6d,0x6f,0x6e,0x5f,0x64,0x61,0x67,0x65,0x6b,0x69,0x32,0x06,0x3a,0x06,0x45,0x54,0x3a,0x0b,0x40,0x70,0x69,0x74,0x63,0x68,0x69,0x69,0x3a,0x0c,0x40,0x76,0x6f,0x6c,0x75,0x6d,0x65,0x69,0x55))
  205(-1,bytes(0x04,0x08,0x6f,0x3a,0x13,0x52,0x50,0x47,0x3a,0x3a,0x4d,0x6f,0x76,0x65,0x52,0x6f,0x75,0x74,0x65,0x09,0x3a,0x0c,0x40,0x72,0x65,0x70,0x65,0x61,0x74,0x46,0x3a,0x0f,0x40,0x73,0x6b,0x69,0x70,0x70,0x61,0x62,0x6c,0x65,0x46,0x3a,0x0a,0x40,0x77,0x61,0x69,0x74,0x46,0x3a,0x0a,0x40,0x6c,0x69,0x73,0x74,0x5b,0x0a,0x6f,0x3a,0x15,0x52,0x50,0x47,0x3a,0x3a,0x4d,0x6f,0x76,0x65,0x43,0x6f,0x6d,0x6d,0x61,0x6e,0x64,0x07,0x3a,0x0a,0x40,0x63,0x6f,0x64,0x65,0x69,0x16,0x3a,0x10,0x40,0x70,0x61,0x72,0x61,0x6d,0x65,0x74,0x65,0x72,0x73,0x5b,0x00,0x6f,0x3b,0x0a,0x07,0x3b,0x0b,0x69,0x28,0x3b,0x0c,0x5b,0x00,0x6f,0x3b,0x0a,0x07,0x3b,0x0b,0x69,0x08,0x3b,0x0c,0x5b,0x00,0x6f,0x3b,0x0a,0x07,0x3b,0x0b,0x69,0x29,0x3b,0x0c,0x5b,0x00,0x6f,0x3b,0x0a,0x07,0x3b,0x0b,0x69,0x00,0x3b,0x0c,0x5b,0x00))
  205(20,bytes(0x04,0x08,0x6f,0x3a,0x13,0x52,0x50,0x47,0x3a,0x3a,0x4d,0x6f,0x76,0x65,0x52,0x6f,0x75,0x74,0x65,0x09,0x3a,0x0c,0x40,0x72,0x65,0x70,0x65,0x61,0x74,0x46,0x3a,0x0f,0x40,0x73,0x6b,0x69,0x70,0x70,0x61,0x62,0x6c,0x65,0x46,0x3a,0x0a,0x40,0x77,0x61,0x69,0x74,0x54,0x3a,0x0a,0x40,0x6c,0x69,0x73,0x74,0x5b,0x09,0x6f,0x3a,0x15,0x52,0x50,0x47,0x3a,0x3a,0x4d,0x6f,0x76,0x65,0x43,0x6f,0x6d,0x6d,0x61,0x6e,0x64,0x07,0x3a,0x0a,0x40,0x63,0x6f,0x64,0x65,0x69,0x08,0x3a,0x10,0x40,0x70,0x61,0x72,0x61,0x6d,0x65,0x74,0x65,0x72,0x73,0x5b,0x00,0x6f,0x3b,0x0a,0x07,0x3b,0x0b,0x69,0x22,0x3b,0x0c,0x5b,0x06,0x69,0x08,0x6f,0x3b,0x0a,0x07,0x3b,0x0b,0x69,0x23,0x3b,0x0c,0x5b,0x06,0x69,0x08,0x6f,0x3b,0x0a,0x07,0x3b,0x0b,0x69,0x00,0x3b,0x0c,0x5b,0x00))
  If(0,4,0)
   ShowMessageFace("alice_fc6",0,0,2,33)
   ShowMessage("\\n<Alice>……グランベリア！")
   ShowMessage("母上の命令で、妨害しに来たか！")
   0()
  EndIf()
  If(0,5,0)
   ShowMessageFace("iriasu_fc4",7,0,2,34)
   ShowMessage("\\n<Ilias>……グランベリア！")
   ShowMessage("魔王の命令で、妨害しに来たのですね！")
   0()
  EndIf()
  PictureDisplay(5,"80_granberia_st61",0,0,0,0,100,100,0,0)
  PictureMove(5,null,0,0,0,0,100,100,255,0,30,true)
  ShowMessageFace("granberia_fc3",0,0,2,35)
  ShowMessage("\\n<グランベリア>いかにも。このような禁呪、魔王様は――")
  PictureClear(5)
  ShowMessageFace("mob_mahousyouzyo_fc1",0,0,2,36)
  ShowMessage("\\n<マジカルまりんちゃん>わわわ、急に割り込んじゃうから……！")
  205(20,bytes(0x04,0x08,0x6f,0x3a,0x13,0x52,0x50,0x47,0x3a,0x3a,0x4d,0x6f,0x76,0x65,0x52,0x6f,0x75,0x74,0x65,0x09,0x3a,0x0c,0x40,0x72,0x65,0x70,0x65,0x61,0x74,0x46,0x3a,0x0f,0x40,0x73,0x6b,0x69,0x70,0x70,0x61,0x62,0x6c,0x65,0x46,0x3a,0x0a,0x40,0x77,0x61,0x69,0x74,0x54,0x3a,0x0a,0x40,0x6c,0x69,0x73,0x74,0x5b,0x07,0x6f,0x3a,0x15,0x52,0x50,0x47,0x3a,0x3a,0x4d,0x6f,0x76,0x65,0x43,0x6f,0x6d,0x6d,0x61,0x6e,0x64,0x07,0x3a,0x0a,0x40,0x63,0x6f,0x64,0x65,0x69,0x15,0x3a,0x10,0x40,0x70,0x61,0x72,0x61,0x6d,0x65,0x74,0x65,0x72,0x73,0x5b,0x00,0x6f,0x3b,0x0a,0x07,0x3b,0x0b,0x69,0x00,0x3b,0x0c,0x5b,0x00))
  ShowMessageFace("granberia_fc3",2,0,2,37)
  ShowMessage("\\n<グランベリア>……何っ！？")
  242(1)
  250(bytes(0x04,0x08,0x6f,0x3a,0x0c,0x52,0x50,0x47,0x3a,0x3a,0x53,0x45,0x08,0x3a,0x0a,0x40,0x6e,0x61,0x6d,0x65,0x49,0x22,0x0b,0x4d,0x61,0x67,0x69,0x63,0x32,0x06,0x3a,0x06,0x45,0x54,0x3a,0x0b,0x40,0x70,0x69,0x74,0x63,0x68,0x69,0x69,0x3a,0x0c,0x40,0x76,0x6f,0x6c,0x75,0x6d,0x65,0x69,0x55))
  PictureDisplay(10,"sys_white",0,0,0,0,100,100,0,0)
  PictureMove(10,null,0,0,0,0,100,100,255,0,30,true)
  ShowMessageFace("granberia_fc3",5,0,2,38)
  ShowMessage("\\n<グランベリア>うわぁぁぁぁぁぁぁ……")
  ChangeSwitch(33,33,0)
  PictureDisplay(5,"80_granberia_st71",0,0,0,0,100,100,255,0)
  PictureMove(10,null,0,0,0,0,100,100,0,0,60,true)
  241(bytes(0x04,0x08,0x6f,0x3a,0x0d,0x52,0x50,0x47,0x3a,0x3a,0x42,0x47,0x4d,0x08,0x3a,0x0a,0x40,0x6e,0x61,0x6d,0x65,0x49,0x22,0x10,0x73,0x63,0x65,0x6e,0x65,0x5f,0x63,0x6f,0x6d,0x69,0x31,0x06,0x3a,0x06,0x45,0x54,0x3a,0x0c,0x40,0x76,0x6f,0x6c,0x75,0x6d,0x65,0x69,0x69,0x3a,0x0b,0x40,0x70,0x69,0x74,0x63,0x68,0x69,0x69))
  ShowMessageFace("granberia_fc4",3,0,2,39)
  ShowMessage("\\n<まじかる☆グランベリア>……………………")
  If(0,4,0)
   ShowMessageFace("alice_fc5",6,0,2,40)
   ShowMessage("\\n<Alice>……………………")
   0()
  EndIf()
  If(0,5,0)
   ShowMessageFace("iriasu_fc4",2,0,2,41)
   ShowMessage("\\n<Ilias>……………………")
   0()
  EndIf()
  If(0,6,0)
   ShowMessageFace("sonia_fc3",2,0,2,42)
   ShowMessage("\\n<Sonya>……………………")
   0()
  EndIf()
  ShowMessageFace("witchs_fc1",3,0,2,43)
  ShowMessage("\\n<ウィッチサキュバス>……………………")
  ShowMessageFace("ruka_fc1",0,0,2,44)
  ShowMessage("\\n<Luka>……………………")
  ShowMessageFace("granberia_fc4",3,0,2,45)
  ShowMessage("\\n<まじかる☆グランベリア>戻るには……どうしたらいい……？")
  ShowMessageFace("mob_mahousyouzyo_fc1",0,0,2,46)
  ShowMessage("\\n<マジカルまりんちゃん>「まじかる☆グランベリア～～キャストオフ♪」って唱えるの。")
  ShowMessageFace("granberia_fc4",3,0,2,47)
  ShowMessage("\\n<まじかる☆グランベリア>冗談で言っているのか……？")
  ShowMessageFace("mob_mahousyouzyo_fc1",0,0,2,48)
  ShowMessage("\\n<マジカルまりんちゃん>ここで冗談言えるほど、肝は据わってない……")
  ShowMessageFace("granberia_fc4",3,0,2,49)
  ShowMessage("\\n<まじかる☆グランベリア>……………………")
  PictureDisplay(5,"80_granberia_st73",0,0,0,0,100,100,255,0)
  ShowMessageFace("granberia_fc4",5,0,2,50)
  ShowMessage("\\n<まじかる☆グランベリア>……ま、まじかる、グランベリア……キャストオフ……")
  Wait(60)
  ShowMessageFace("mob_mahousyouzyo_fc1",0,0,2,51)
  ShowMessage("\\n<マジカルまりんちゃん>心がこもっていなかったから、反応しなかったみたい……")
  PictureDisplay(5,"80_granberia_st72",0,0,0,0,100,100,255,0)
  ShowMessageFace("granberia_fc4",4,0,2,52)
  ShowMessage("\\n<まじかる☆グランベリア>……まじかる☆グランベリア～～キャストオフ♪")
  250(bytes(0x04,0x08,0x6f,0x3a,0x0c,0x52,0x50,0x47,0x3a,0x3a,0x53,0x45,0x08,0x3a,0x0a,0x40,0x6e,0x61,0x6d,0x65,0x49,0x22,0x0b,0x4d,0x61,0x67,0x69,0x63,0x32,0x06,0x3a,0x06,0x45,0x54,0x3a,0x0b,0x40,0x70,0x69,0x74,0x63,0x68,0x69,0x69,0x3a,0x0c,0x40,0x76,0x6f,0x6c,0x75,0x6d,0x65,0x69,0x55))
  PictureDisplay(10,"sys_white",0,0,0,0,100,100,0,0)
  PictureMove(10,null,0,0,0,0,100,100,255,0,60,true)
  ChangeSwitch(32,32,1)
  PictureDisplay(5,"80_granberia_st64",0,0,0,0,100,100,255,0)
  PictureMove(10,null,0,0,0,0,100,100,0,0,60,true)
  ShowMessageFace("granberia_fc3",3,0,2,53)
  ShowMessage("\\n<グランベリア>……………………")
  If(0,4,0)
   ShowMessageFace("alice_fc5",0,0,2,54)
   ShowMessage("\\n<Alice>……………………")
   0()
  EndIf()
  If(0,5,0)
   ShowMessageFace("iriasu_fc4",2,0,2,55)
   ShowMessage("\\n<Ilias>……………………")
   0()
  EndIf()
  If(0,6,0)
   ShowMessageFace("sonia_fc2",2,0,2,56)
   ShowMessage("\\n<Sonya>……………………")
   0()
  EndIf()
  PictureDisplay(5,"80_granberia_st61",0,0,0,0,100,100,255,0)
  ShowMessageFace("granberia_fc3",0,0,2,57)
  ShowMessage("\\n<グランベリア>私は帰る……")
  If(0,4,0)
   ShowMessageFace("alice_fc5",0,0,2,58)
   ShowMessage("\\n<Alice>うむ……")
   0()
  EndIf()
  If(0,5,0)
   ShowMessageFace("iriasu_fc4",2,0,2,59)
   ShowMessage("\\n<Ilias>どうぞ……")
   0()
  EndIf()
  PictureDisplay(5,"80_granberia_st64",0,0,0,0,100,100,255,0)
  ShowMessageFace("granberia_fc3",3,0,2,60)
  ShowMessage("\\n<グランベリア>……………………")
  PictureClear(5)
  Wait(60)
  250(bytes(0x04,0x08,0x6f,0x3a,0x0c,0x52,0x50,0x47,0x3a,0x3a,0x53,0x45,0x08,0x3a,0x0a,0x40,0x6e,0x61,0x6d,0x65,0x49,0x22,0x0d,0x6d,0x6f,0x6e,0x5f,0x77,0x61,0x72,0x70,0x06,0x3a,0x06,0x45,0x54,0x3a,0x0b,0x40,0x70,0x69,0x74,0x63,0x68,0x69,0x69,0x3a,0x0c,0x40,0x76,0x6f,0x6c,0x75,0x6d,0x65,0x69,0x55))
  ChangeSwitch(32,32,1)
  ChangeSwitch(33,33,1)
  ShowMessageFace("",0,0,2,61)
  ShowMessage("グランベリアは去っていった……")
  Wait(60)
  241(bytes(0x04,0x08,0x6f,0x3a,0x0d,0x52,0x50,0x47,0x3a,0x3a,0x42,0x47,0x4d,0x08,0x3a,0x0a,0x40,0x6e,0x61,0x6d,0x65,0x49,0x22,0x14,0x73,0x63,0x65,0x6e,0x65,0x5f,0x65,0x70,0x69,0x6c,0x6f,0x67,0x75,0x65,0x32,0x06,0x3a,0x06,0x45,0x54,0x3a,0x0c,0x40,0x76,0x6f,0x6c,0x75,0x6d,0x65,0x69,0x69,0x3a,0x0b,0x40,0x70,0x69,0x74,0x63,0x68,0x69,0x69))
  PictureDisplay(5,"80_mob_marin_st01",0,0,0,0,100,100,0,0)
  PictureMove(5,null,0,0,0,0,100,100,255,0,30,true)
  ShowMessageFace("mob_mahousyouzyo_fc1",0,0,2,62)
  ShowMessage("\\n<マジカルまりんちゃん>これで、新たな魔法少女は決まったね。")
  ShowMessage("次代までに、すっごく怨念が溜まりそう……")
  If(0,4,0)
   ShowMessageFace("alice_fc5",0,0,2,63)
   ShowMessage("\\n<Alice>あいつ、自害していないだろうな……")
   0()
  EndIf()
  If(0,5,0)
   ShowMessageFace("iriasu_fc4",2,0,2,64)
   ShowMessage("\\n<Ilias>今頃、切腹していたりして……")
   0()
  EndIf()
  If(0,6,0)
   ShowMessageFace("sonia_fc2",2,0,2,65)
   ShowMessage("\\n<Sonya>見なかった事にしてあげようよ……")
   0()
  Else()
   ShowMessageFace("ruka_fc1",0,0,2,66)
   ShowMessage("\\n<Luka>見なかった事にしてあげよう……")
   0()
  EndIf()
  221()
  Wait(60)
  PictureClear(5)
  ChangeVariable(1078,1078,0,0,5)
  TeleportPlayer(0,50,14,35,8,2)
  222()
  355("gain_medal(49)")
  ShowMessageFace("mob_mahousyouzyo_fc1",0,0,2,67)
  ShowMessage("\\n<マジカルまりんちゃん>こうして、無事に儀式は終わったのでした～♪")
  ShowMessage("めでたし、めでたし♪")
  If(0,4,0)
   ShowMessageFace("alice_fc5",0,0,2,68)
   ShowMessage("\\n<Alice>何が無事で、何がめでたいのかは分からんが……")
   ShowMessage("貴様がそれでいいなら口は挟まん。")
   0()
  EndIf()
  If(0,5,0)
   ShowMessageFace("iriasu_fc4",2,0,2,69)
   ShowMessage("\\n<Ilias>無事でもめでたくもありませんが……")
   ShowMessage("もう、何でもいいです。")
   0()
  EndIf()
  ShowMessageFace("mob_mahousyouzyo_fc1",0,0,2,70)
  ShowMessage("\\n<マジカルまりんちゃん>あの竜人の人に、これを渡しておいてほしいの。")
  ShowMessage("君達、知り合いだよね？")
  250(bytes(0x04,0x08,0x6f,0x3a,0x0c,0x52,0x50,0x47,0x3a,0x3a,0x53,0x45,0x08,0x3a,0x0a,0x40,0x6e,0x61,0x6d,0x65,0x49,0x22,0x0a,0x49,0x74,0x65,0x6d,0x31,0x06,0x3a,0x06,0x45,0x54,0x3a,0x0b,0x40,0x70,0x69,0x74,0x63,0x68,0x69,0x69,0x3a,0x0c,0x40,0x76,0x6f,0x6c,0x75,0x6d,0x65,0x69,0x55))
  ChangeInventory_Item(607,0,0,1)
  If(0,4,0)
   ShowMessageFace("alice_fc5",0,0,2,71)
   ShowMessage("\\n<Alice>別に構わんが……")
   ShowMessage("次に奴と会うのは、いつになるか分からんぞ。")
   0()
  EndIf()
  If(0,5,0)
   ShowMessageFace("iriasu_fc4",2,0,2,72)
   ShowMessage("\\n<Ilias>別に構いませんけど……")
   ShowMessage("次にあの者と会うのは、いつになるか分かりませんよ。")
   0()
  EndIf()
  ShowMessageFace("mob_mahousyouzyo_fc1",0,0,2,73)
  ShowMessage("\\n<マジカルまりんちゃん>いっさい構わないよ、やっと厄介払いできるんだし♪")
  If(4,203,0)
   ShowMessageFace("tatunoko_k_fc1",2,0,2,74)
   ShowMessage("\\n<Tatsuko>なんと雑な仕事ぶり……")
   0()
  EndIf()
  If(0,6,0)
   ShowMessageFace("sonia_fc2",2,0,2,75)
   ShowMessage("\\n<Sonya>ねぇ、ところで気になってたんだけど……")
   PictureDisplay(5,"80_witchs_st11",0,0,0,0,100,100,0,0)
   PictureMove(5,null,0,0,0,0,100,100,255,0,30,true)
   ShowMessageFace("sonia_fc3",2,0,2,76)
   ShowMessage("\\n<Sonya>なんで、当たり前のようにこの人がいるの！？")
   0()
  Else()
   ShowMessageFace("ruka_fc1",0,0,2,77)
   ShowMessage("\\n<Luka>ところで、気になってたんだけど……")
   PictureDisplay(5,"80_witchs_st11",0,0,0,0,100,100,0,0)
   PictureMove(5,null,0,0,0,0,100,100,255,0,30,true)
   ShowMessageFace("ruka_fc1",0,0,2,78)
   ShowMessage("\\n<Luka>なんで、この人がいるの？")
   0()
  EndIf()
  PictureDisplay(5,"80_witchs_st12",0,0,0,0,100,100,255,0)
  ShowMessageFace("witchs_fc1",1,0,2,79)
  ShowMessage("\\n<ウィッチサキュバス>あなた達の力に、興味を持ったのよ。")
  ShowMessage("それで、一緒にいようかな……ってね♪")
  ShowMessageFace("ruka_fc1",0,0,2,80)
  ShowMessage("\\n<Luka>どうせ、断っても無駄だよね。")
  ShowMessage("また強引に仲間入りか……")
  If(4,287,0)
   ShowMessageFace("succubus_fc1",0,0,2,81)
   ShowMessage("\\n<Succubus>あなたと旅をするなんて、面白いわね……")
   ShowMessage("よろしく、ウィッチ。")
   0()
  EndIf()
  ShowMessageFace("witchs_fc1",1,0,2,82)
  ShowMessage("\\n<ウィッチサキュバス>うふふっ……よろしくね♪")
  ChangeSwitch(31,31,1)
  ChangeSwitch(32,32,1)
  ChangeSwitch(33,33,1)
  216(0)
  PictureClear(5)
  355("add_actor_ex(286)")
  249(bytes(0x04,0x08,0x6f,0x3a,0x0c,0x52,0x50,0x47,0x3a,0x3a,0x4d,0x45,0x08,0x3a,0x0a,0x40,0x6e,0x61,0x6d,0x65,0x49,0x22,0x0c,0x66,0x61,0x6e,0x66,0x61,0x6c,0x65,0x06,0x3a,0x06,0x45,0x54,0x3a,0x0b,0x40,0x70,0x69,0x74,0x63,0x68,0x69,0x69,0x3a,0x0c,0x40,0x76,0x6f,0x6c,0x75,0x6d,0x65,0x69,0x69))
  ShowMessageFace("",0,0,2,83)
  ShowMessage("ウィッチが仲間に加わった！")
  Wait(60)
  If(0,6,0)
   ShowMessageFace("sonia_fc4",0,0,2,84)
   ShowMessage("\\n<Sonya>なんだか、すごく疲れた……")
   0()
  Else()
   ShowMessageFace("ruka_fc1",0,0,2,85)
   ShowMessage("\\n<Luka>なんだか疲れたね……")
   0()
  EndIf()
  If(0,4,0)
   ShowMessageFace("alice_fc5",0,0,2,86)
   ShowMessage("\\n<Alice>気を取り直して、旅を続けるとしよう。")
   0()
  EndIf()
  If(0,5,0)
   ShowMessageFace("iriasu_fc4",0,0,2,87)
   ShowMessage("\\n<Ilias>気を取り直して、旅を続けましょう。")
   0()
  EndIf()
  If(4,288,0)
   ShowMessageFace("d_succubus_fc1",0,0,2,88)
   ShowMessage("\\n<ナターシャ>（魔法少女、なりたかったなぁ……）")
   0()
  EndIf()
  ShowMessageFace("",0,0,2,89)
  ShowMessage("まあ、グランベリアに押し付けて難を逃れたとも言える。")
  ShowMessage("さあ、冒険の旅を続けよう――")
  EndEventProcessing()
  0()
 PAGE   2
  // condition: variable 1078 >= 5
  0()



EVENT   19
 PAGE   1
  // condition: switch 31 is ON
  0()



EVENT   20
 PAGE   1
  // condition: switch 32 is ON
  0()
 PAGE   2
  // condition: switch 33 is ON
  0()



EVENT   21
 PAGE   1
  // condition: switch 4 is ON
  // condition: variable 1078 >= 3
  ShowMessageFace("dog_fc1",4,0,2,1)
  ShowMessage("\\n<Wanko>ばたんきゅう……")
  0()
 PAGE   2
  // condition: switch 5 is ON
  // condition: variable 1078 >= 3
  ShowMessageFace("youko_fc1",2,0,2,1)
  ShowMessage("\\n<Mofuyu>魔法少女になりたかったよぉ……")
  0()
 PAGE   3
  // condition: variable 1078 >= 5
  0()
 PAGE   4
  // condition: variable 1001 >= 28
  0()



EVENT   22
 PAGE   1
  // condition: switch 4 is ON
  // condition: variable 1078 >= 3
  ShowMessageFace("slime_fc1",2,0,2,1)
  ShowMessage("\\n<Puruko>ぐにゃり……")
  0()
 PAGE   2
  // condition: switch 5 is ON
  // condition: variable 1078 >= 3
  ShowMessageFace("bunnyslime_fc1",2,0,2,1)
  ShowMessage("\\n<Usako>うにゅう……")
  0()
 PAGE   3
  // condition: variable 1078 >= 5
  0()
 PAGE   4
  // condition: variable 1001 >= 28
  0()



EVENT   23
 PAGE   1
  // condition: switch 4 is ON
  // condition: variable 1078 >= 3
  ShowMessageFace("iriasu_fc4",4,0,2,1)
  ShowMessage("\\n<Ilias>魔法少女には、私がふさわしいはずなのに……")
  ShowMessageFace("alice_fc5",0,0,2,2)
  ShowMessage("\\n<Alice>こいつも参加していたのか……")
  ShowMessage("しかも負けている。")
  0()
 PAGE   2
  // condition: switch 5 is ON
  // condition: variable 1078 >= 3
  ShowMessageFace("alice_fc5",3,0,2,1)
  ShowMessage("\\n<Alice>無念……余こそ魔法少女に相応しいのに……")
  ShowMessageFace("iriasu_fc4",2,0,2,2)
  ShowMessage("\\n<Ilias>この者も参加していましたか……")
  ShowMessage("しかも無様に負けてますね。")
  0()
 PAGE   3
  // condition: variable 1078 >= 5
  0()
 PAGE   4
  // condition: variable 1001 >= 28
  0()
