﻿


EVENT   1
 PAGE   1
  // condition: variable 126 >= 0
  ChangeVariable(16,16,0,2,1,5)
  If(8,561)
   ChangeInventory_Item(561,1,0,1)
   ShowMessageFace("",0,0,2,1)
   ShowMessage("ルカ達は、ラザロに普通の魚を与えた……")
   0()
  EndIf()
  If(8,562)
   ChangeInventory_Item(562,1,0,1)
   ChangeVariable(1095,1095,1,0,1)
   ShowMessageFace("",0,0,2,2)
   ShowMessage("ルカ達は、ラザロにうまい魚を与えた……")
   0()
  EndIf()
  If(8,563)
   ChangeInventory_Item(563,1,0,1)
   ChangeVariable(1095,1095,2,0,1)
   ShowMessageFace("",0,0,2,3)
   ShowMessage("ルカ達は、ラザロにまずい魚を与えた……")
   0()
  EndIf()
  If(1,1095,0,0,0)
   ShowMessageFace("lazarus3_fc1",0,0,2,4)
   ShowMessage("\\n<Lazarus>ごほごほ、体が限界だぜ……")
   ShowMessage("た、助けてくれ……")
   ShowMessageFace("",0,0,2,5)
   ShowMessage("ラザロの容態は悪いようだ……")
   EndEventProcessing()
   0()
  EndIf()
  If(1,1095,0,1,0)
   ShowMessageFace("lazarus3_fc1",0,0,2,6)
   ShowMessage("\\n<Lazarus>少しだけ、体がマシになった気がするぜ……")
   ShowMessage("魚を……もっと魚をくれよ……")
   ShowMessageFace("",0,0,2,7)
   ShowMessage("ラザロの容態は回復に向かっている！")
   EndEventProcessing()
   0()
  EndIf()
  If(1,1095,0,2,1)
   ShowMessageFace("lazarus3_fc1",0,0,2,8)
   ShowMessage("\\n<Lazarus>ふぅ、もう大丈夫だ。")
   ShowMessage("すっかり元気になったぜ！")
   249(bytes(0x04,0x08,0x6f,0x3a,0x0c,0x52,0x50,0x47,0x3a,0x3a,0x4d,0x45,0x08,0x3a,0x0a,0x40,0x6e,0x61,0x6d,0x65,0x49,0x22,0x09,0x6c,0x76,0x75,0x70,0x06,0x3a,0x06,0x45,0x54,0x3a,0x0b,0x40,0x70,0x69,0x74,0x63,0x68,0x69,0x69,0x3a,0x0c,0x40,0x76,0x6f,0x6c,0x75,0x6d,0x65,0x69,0x69))
   ShowMessageFace("",0,0,2,9)
   ShowMessage("ラザロは完全に回復した！")
   ShowMessageFace("lazarus3_fc1",0,0,2,10)
   ShowMessage("\\n<Lazarus>よく助けてくれたもんだぜ……")
   ShowMessage("礼として、これを持っていきな。")
   RunCommonEvent(832)
   Wait(60)
   ChangeVariable(121,121,2,0,1)
   RunCommonEvent(901)
   EndEventProcessing()
   0()
  EndIf()
  If(1,1095,0,-1,0)
   ShowMessageFace("lazarus3_fc1",0,0,2,11)
   ShowMessage("\\n<Lazarus>ごほごほ……ぐふっ、げふぅっ！")
   ShowMessage("俺は、もうダメかもな……")
   ShowMessageFace("",0,0,2,12)
   ShowMessage("ラザロは極度に衰弱している……")
   EndEventProcessing()
   0()
  EndIf()
  If(1,1095,0,-2,2)
   ShowMessageFace("lazarus3_fc1",3,0,2,13)
   ShowMessage("\\n<Lazarus>グエ！")
   TemporaryRemoveEvent()
   ShowMessageFace("",0,0,2,14)
   ShowMessage("ラザロは力尽きた……")
   Wait(60)
   ChangeVariable(121,121,2,0,1)
   RunCommonEvent(901)
   EndEventProcessing()
   0()
  EndIf()
  0()
 PAGE   2
  // condition: variable 126 >= 1
  ChangeVariable(16,16,0,2,1,5)
  If(8,561)
   ChangeInventory_Item(561,1,0,1)
   ShowMessageFace("",0,0,2,1)
   ShowMessage("ルカ達は、エヴァに普通の魚を与えた……")
   0()
  EndIf()
  If(8,562)
   ChangeInventory_Item(562,1,0,1)
   ChangeVariable(1095,1095,1,0,1)
   ShowMessageFace("",0,0,2,2)
   ShowMessage("ルカ達は、エヴァにうまい魚を与えた……")
   0()
  EndIf()
  If(8,563)
   ChangeInventory_Item(563,1,0,1)
   ChangeVariable(1095,1095,2,0,1)
   ShowMessageFace("",0,0,2,3)
   ShowMessage("ルカ達は、エヴァにまずい魚を与えた……")
   0()
  EndIf()
  If(1,1095,0,0,0)
   ShowMessageFace("eva_fc1",2,0,2,4)
   ShowMessage("\\n<Eva>お腹が減って死にそう……")
   ShowMessage("何か……何か食べさせて……")
   ShowMessageFace("",0,0,2,5)
   ShowMessage("エヴァの容態は悪いようだ……")
   EndEventProcessing()
   0()
  EndIf()
  If(1,1095,0,1,0)
   ShowMessageFace("eva_fc1",0,0,2,6)
   ShowMessage("\\n<Eva>ちょっとお腹が膨らんできたかも……")
   ShowMessage("ねぇねぇ、もっと魚を食べさせてよ……")
   ShowMessageFace("",0,0,2,7)
   ShowMessage("エヴァの容態は回復に向かっている！")
   EndEventProcessing()
   0()
  EndIf()
  If(1,1095,0,2,1)
   ShowMessageFace("eva_fc1",0,0,2,8)
   ShowMessage("\\n<Eva>ありがとう、すっかり満腹よ♪")
   249(bytes(0x04,0x08,0x6f,0x3a,0x0c,0x52,0x50,0x47,0x3a,0x3a,0x4d,0x45,0x08,0x3a,0x0a,0x40,0x6e,0x61,0x6d,0x65,0x49,0x22,0x09,0x6c,0x76,0x75,0x70,0x06,0x3a,0x06,0x45,0x54,0x3a,0x0b,0x40,0x70,0x69,0x74,0x63,0x68,0x69,0x69,0x3a,0x0c,0x40,0x76,0x6f,0x6c,0x75,0x6d,0x65,0x69,0x69))
   ShowMessageFace("",0,0,2,9)
   ShowMessage("エヴァは完全に回復した！")
   ShowMessageFace("eva_fc1",0,0,2,10)
   ShowMessage("\\n<Eva>食べ物運んでくれるなんて、世の中チョロいわよね～♪")
   ShowMessage("ほら、これあげる！")
   RunCommonEvent(834)
   Wait(60)
   ChangeVariable(121,121,2,0,1)
   RunCommonEvent(901)
   0()
  EndIf()
  If(1,1095,0,-1,0)
   ShowMessageFace("eva_fc1",2,0,2,11)
   ShowMessage("\\n<Eva>ひもじい……もう、限界よ……")
   ShowMessageFace("",0,0,2,12)
   ShowMessage("エヴァは極度に衰弱している……")
   EndEventProcessing()
   0()
  EndIf()
  If(1,1095,0,-2,2)
   ShowMessageFace("eva_fc1",0,0,2,13)
   ShowMessage("\\n<Eva>あっ、目の前に山盛りのパフェが♪")
   ShowMessage("死んだお婆ちゃんもいる～♪")
   ShowMessageFace("eva_fc1",0,0,2,14)
   ShowMessage("\\n<Eva>しあわせ～♪　しあわせ～♪")
   ShowMessage("もう、働かなくてもいいんだ～♪")
   ShowMessageFace("eva_fc1",0,0,2,15)
   ShowMessage("\\n<Eva>しあ……わせ……")
   TemporaryRemoveEvent()
   ShowMessageFace("",0,0,2,16)
   ShowMessage("エヴァは力尽きた……")
   Wait(60)
   ChangeVariable(121,121,2,0,1)
   RunCommonEvent(901)
   EndEventProcessing()
   0()
  EndIf()
  0()
 PAGE   3
  // condition: variable 126 >= 2
  ChangeVariable(16,16,0,2,1,5)
  If(8,561)
   ChangeInventory_Item(561,1,0,1)
   ShowMessageFace("",0,0,2,1)
   ShowMessage("ルカ達は、羊娘に普通の魚を与えた……")
   0()
  EndIf()
  If(8,562)
   ChangeInventory_Item(562,1,0,1)
   ChangeVariable(1095,1095,1,0,1)
   ShowMessageFace("",0,0,2,2)
   ShowMessage("ルカ達は、羊娘にうまい魚を与えた……")
   0()
  EndIf()
  If(8,563)
   ChangeInventory_Item(563,1,0,1)
   ChangeVariable(1095,1095,2,0,1)
   ShowMessageFace("",0,0,2,3)
   ShowMessage("ルカ達は、羊娘にまずい魚を与えた……")
   0()
  EndIf()
  JumpToLabel("会話")
  If(1,1095,0,0,0)
   ShowMessageFace("hituzi_fc1",3,0,2,4)
   ShowMessage("\\n<羊娘>うい～～～～～～")
   ShowMessage("オツマミが……オツマミが欲しいのら……")
   ShowMessageFace("",0,0,2,5)
   ShowMessage("羊娘の容態は悪いようだ……")
   EndEventProcessing()
   0()
  EndIf()
  If(1,1095,0,1,0)
   ShowMessageFace("hituzi_fc1",3,0,2,6)
   ShowMessage("\\n<羊娘>オツマミが届いたのら……")
   ShowMessage("むしゃむしゃむしゃ……")
   ShowMessageFace("",0,0,2,7)
   ShowMessage("羊娘の容態は回復に向かっている！")
   EndEventProcessing()
   0()
  EndIf()
  If(1,1095,0,2,1)
   ShowMessageFace("hituzi_fc1",3,0,2,8)
   ShowMessage("\\n<羊娘>むしゃむしゃむしゃ……")
   ShowMessageFace("hituzi_fc1",7,0,2,9)
   ShowMessage("\\n<羊娘>ぐびぐびぐび……")
   ShowMessageFace("hituzi_fc1",1,0,2,10)
   ShowMessage("\\n<羊娘>……満足なのら。")
   249(bytes(0x04,0x08,0x6f,0x3a,0x0c,0x52,0x50,0x47,0x3a,0x3a,0x4d,0x45,0x08,0x3a,0x0a,0x40,0x6e,0x61,0x6d,0x65,0x49,0x22,0x09,0x6c,0x76,0x75,0x70,0x06,0x3a,0x06,0x45,0x54,0x3a,0x0b,0x40,0x70,0x69,0x74,0x63,0x68,0x69,0x69,0x3a,0x0c,0x40,0x76,0x6f,0x6c,0x75,0x6d,0x65,0x69,0x69))
   ShowMessageFace("",0,0,2,11)
   ShowMessage("羊娘は完全に回復した！")
   ShowMessageFace("hituzi_fc1",3,0,2,12)
   ShowMessage("\\n<羊娘>オツマミの礼に、これをあげるのら～～！")
   RunCommonEvent(834)
   Wait(60)
   ChangeVariable(121,121,2,0,1)
   RunCommonEvent(901)
   0()
  EndIf()
  If(1,1095,0,-1,0)
   ShowMessageFace("hituzi_fc1",3,0,2,13)
   ShowMessage("\\n<羊娘>まずい魚はオツマミにならん……")
   ShowMessage("オツマミがなくて、飲めるか～～！！")
   ShowMessageFace("hituzi_fc1",7,0,2,14)
   ShowMessage("\\n<羊娘>ぐびぐびぐび……")
   ShowMessageFace("",0,0,2,15)
   ShowMessage("羊娘は極度に衰弱している……")
   EndEventProcessing()
   0()
  EndIf()
  If(1,1095,0,-2,2)
   ShowMessageFace("hituzi_fc1",7,0,2,16)
   ShowMessage("\\n<羊娘>ぐびぐびぐび……")
   ShowMessageFace("hituzi_fc1",3,0,2,17)
   ShowMessage("\\n<羊娘>あっ、ウサギ……")
   ShowMessage("迎えに来るなんて、過保護なのらね……")
   ShowMessageFace("hituzi_fc1",3,0,2,18)
   ShowMessage("\\n<羊娘>ちょ、うさぎ！　どこへ連れていくのら～！")
   ShowMessage("その川を越えてはいけないのら！！")
   ShowMessageFace("hituzi_fc1",3,0,2,19)
   ShowMessage("\\n<羊娘>うさぎ～！　やめれ、うさぎ～！！")
   ShowMessageFace("hituzi_fc1",3,0,2,20)
   ShowMessage("\\n<羊娘>やめ……")
   TemporaryRemoveEvent()
   ShowMessageFace("",0,0,2,21)
   ShowMessage("羊娘は力尽きた……")
   Wait(60)
   ChangeVariable(121,121,2,0,1)
   RunCommonEvent(901)
   EndEventProcessing()
   0()
  EndIf()
  0()
 PAGE   4
  // condition: variable 126 >= 3
  ChangeVariable(16,16,0,2,1,5)
  If(8,561)
   ChangeInventory_Item(561,1,0,1)
   ShowMessageFace("",0,0,2,1)
   ShowMessage("ルカ達は、サン・イリア王に普通の魚を与えた……")
   0()
  EndIf()
  If(8,562)
   ChangeInventory_Item(562,1,0,1)
   ChangeVariable(1095,1095,1,0,1)
   ShowMessageFace("",0,0,2,2)
   ShowMessage("ルカ達は、サン・イリア王にうまい魚を与えた……")
   0()
  EndIf()
  If(8,563)
   ChangeInventory_Item(563,1,0,1)
   ChangeVariable(1095,1095,2,0,1)
   ShowMessageFace("",0,0,2,3)
   ShowMessage("ルカ達は、サン・イリア王にまずい魚を与えた……")
   0()
  EndIf()
  If(1,1095,0,0,0)
   ShowMessageFace("saniria_fc2",0,0,2,4)
   ShowMessage("\\n<King of San Ilia>ぐっ……バッテリー低下……")
   ShowMessage("早急にDHAが必要だ……")
   ShowMessageFace("",0,0,2,5)
   ShowMessage("サン・イリア王の容態は悪いようだ……")
   EndEventProcessing()
   0()
  EndIf()
  If(1,1095,0,1,0)
   ShowMessageFace("saniria_fc2",0,0,2,6)
   ShowMessage("\\n<King of San Ilia>動力回復中……")
   ShowMessage("もう少し、DHAを摂取すれば……")
   ShowMessageFace("",0,0,2,7)
   ShowMessage("サン・イリア王の容態は回復に向かっている！")
   EndEventProcessing()
   0()
  EndIf()
  If(1,1095,0,2,1)
   ShowMessageFace("saniria_fc2",0,0,2,8)
   ShowMessage("\\n<King of San Ilia>動力充填完了……")
   ShowMessage("ありがとう、完全に復旧したよ。")
   249(bytes(0x04,0x08,0x6f,0x3a,0x0c,0x52,0x50,0x47,0x3a,0x3a,0x4d,0x45,0x08,0x3a,0x0a,0x40,0x6e,0x61,0x6d,0x65,0x49,0x22,0x09,0x6c,0x76,0x75,0x70,0x06,0x3a,0x06,0x45,0x54,0x3a,0x0b,0x40,0x70,0x69,0x74,0x63,0x68,0x69,0x69,0x3a,0x0c,0x40,0x76,0x6f,0x6c,0x75,0x6d,0x65,0x69,0x69))
   ShowMessageFace("",0,0,2,9)
   ShowMessage("サン・イリア王は完全に回復した！")
   ShowMessageFace("saniria_fc2",0,0,2,10)
   ShowMessage("\\n<King of San Ilia>君達には、感謝している……")
   ShowMessage("礼の品を受け取ってくれたまえ。")
   RunCommonEvent(835)
   Wait(60)
   ChangeVariable(121,121,2,0,1)
   RunCommonEvent(901)
   EndEventProcessing()
   0()
  EndIf()
  If(1,1095,0,-1,0)
   ShowMessageFace("saniria_fc2",0,0,2,11)
   ShowMessage("\\n<King of San Ilia>予備電力ヲ使用シマス。")
   ShowMessageFace("",0,0,2,12)
   ShowMessage("サン・イリア王は極度に衰弱している……")
   EndEventProcessing()
   0()
  EndIf()
  If(1,1095,0,-2,2)
   ShowMessageFace("saniria_fc2",0,0,2,13)
   ShowMessage("\\n<King of San Ilia>今度生まれ変わったら……")
   ShowMessage("天使のようなロボットに……")
   TemporaryRemoveEvent()
   ShowMessageFace("",0,0,2,14)
   ShowMessage("サン・イリア王は力尽きた……")
   Wait(60)
   ChangeVariable(121,121,2,0,1)
   RunCommonEvent(901)
   EndEventProcessing()
   0()
  EndIf()
  0()
 PAGE   5
  // condition: variable 126 >= 4
  ChangeVariable(16,16,0,2,1,5)
  If(8,561)
   ChangeInventory_Item(561,1,0,1)
   ShowMessageFace("",0,0,2,1)
   ShowMessage("ルカ達は、モリガンに普通の魚を与えた……")
   0()
  EndIf()
  If(8,562)
   ChangeInventory_Item(562,1,0,1)
   ChangeVariable(1095,1095,1,0,1)
   ShowMessageFace("",0,0,2,2)
   ShowMessage("ルカ達は、モリガンにうまい魚を与えた……")
   0()
  EndIf()
  If(8,563)
   ChangeInventory_Item(563,1,0,1)
   ChangeVariable(1095,1095,2,0,1)
   ShowMessageFace("",0,0,2,3)
   ShowMessage("ルカ達は、モリガンにまずい魚を与えた……")
   0()
  EndIf()
  If(1,1095,0,0,0)
   ShowMessageFace("morrigan_fc1",2,0,2,4)
   ShowMessage("\\n<Morrigan>くっ、体が……")
   ShowMessage("栄養補給しないと……")
   ShowMessageFace("",0,0,2,5)
   ShowMessage("モリガンの容態は悪いようだ……")
   EndEventProcessing()
   0()
  EndIf()
  If(1,1095,0,1,0)
   ShowMessageFace("morrigan_fc1",2,0,2,6)
   ShowMessage("\\n<Morrigan>ちょっとはマシになったか……")
   ShowMessage("もっと栄養を持ってきてくれたら、礼はするぜ……")
   ShowMessageFace("",0,0,2,7)
   ShowMessage("モリガンの容態は回復に向かっている！")
   EndEventProcessing()
   0()
  EndIf()
  If(1,1095,0,2,1)
   ShowMessageFace("morrigan_fc1",0,0,2,8)
   ShowMessage("\\n<Morrigan>ははっ、ありがとよ！")
   ShowMessage("すっかり元気になったぜ！")
   249(bytes(0x04,0x08,0x6f,0x3a,0x0c,0x52,0x50,0x47,0x3a,0x3a,0x4d,0x45,0x08,0x3a,0x0a,0x40,0x6e,0x61,0x6d,0x65,0x49,0x22,0x09,0x6c,0x76,0x75,0x70,0x06,0x3a,0x06,0x45,0x54,0x3a,0x0b,0x40,0x70,0x69,0x74,0x63,0x68,0x69,0x69,0x3a,0x0c,0x40,0x76,0x6f,0x6c,0x75,0x6d,0x65,0x69,0x69))
   ShowMessageFace("",0,0,2,9)
   ShowMessage("モリガンは完全に回復した！")
   ShowMessageFace("morrigan_fc1",0,0,2,10)
   ShowMessage("\\n<Morrigan>ほら、お礼の品をやるぜ！")
   RunCommonEvent(833)
   ShowMessageFace("morrigan_fc1",1,0,2,11)
   ShowMessage("\\n<Morrigan>ははっ、お礼にイイ事してもらえると思ったか？")
   ShowMessage("残念でした～！")
   ShowMessageFace("morrigan_fc1",0,0,2,12)
   ShowMessage("\\n<Morrigan>……まあ、またの機会にな。")
   Wait(60)
   ChangeVariable(121,121,2,0,1)
   RunCommonEvent(901)
   EndEventProcessing()
   0()
  EndIf()
  If(1,1095,0,-1,0)
   ShowMessageFace("morrigan_fc1",2,0,2,13)
   ShowMessage("\\n<Morrigan>ヤバい、体に力が入らないぜ……")
   ShowMessage("早く、早く養分を……")
   ShowMessageFace("",0,0,2,14)
   ShowMessage("モリガンは極度に衰弱している……")
   EndEventProcessing()
   0()
  EndIf()
  If(1,1095,0,-2,2)
   ShowMessageFace("morrigan_fc1",2,0,2,15)
   ShowMessage("\\n<Morrigan>おねえちゃん……")
   ShowMessage("……たす、けて……")
   TemporaryRemoveEvent()
   ShowMessageFace("",0,0,2,16)
   ShowMessage("モリガンは力尽きた……")
   Wait(60)
   ChangeVariable(121,121,2,0,1)
   RunCommonEvent(901)
   EndEventProcessing()
   0()
  EndIf()
  0()
 PAGE   6
  // condition: variable 126 >= 5
  ChangeVariable(16,16,0,2,1,5)
  If(8,561)
   ChangeInventory_Item(561,1,0,1)
   ShowMessageFace("",0,0,2,1)
   ShowMessage("ルカ達は、ドーメイマに普通の魚を与えた……")
   0()
  EndIf()
  If(8,562)
   ChangeInventory_Item(562,1,0,1)
   ChangeVariable(1095,1095,1,0,1)
   ShowMessageFace("",0,0,2,2)
   ShowMessage("ルカ達は、ドーメイマにうまい魚を与えた……")
   0()
  EndIf()
  If(8,563)
   ChangeInventory_Item(563,1,0,1)
   ChangeVariable(1095,1095,2,0,1)
   ShowMessageFace("",0,0,2,3)
   ShowMessage("ルカ達は、ドーメイマにまずい魚を与えた……")
   0()
  EndIf()
  If(1,1095,0,0,0)
   ShowMessageFace("domeima_fc1",0,0,2,4)
   ShowMessage("\\n<Domaimer>み……水……")
   ShowMessageFace("",0,0,2,5)
   ShowMessage("ドーメイマの容態は悪いようだ……")
   EndEventProcessing()
   0()
  EndIf()
  If(1,1095,0,1,0)
   ShowMessageFace("domeima_fc1",0,0,2,6)
   ShowMessage("\\n<Domaimer>み……水……")
   ShowMessageFace("",0,0,2,7)
   ShowMessage("ドーメイマの容態は回復に向かっている！")
   EndEventProcessing()
   0()
  EndIf()
  If(1,1095,0,2,1)
   ShowMessageFace("domeima_fc1",0,0,2,8)
   ShowMessage("\\n<Domaimer>み……水……")
   249(bytes(0x04,0x08,0x6f,0x3a,0x0c,0x52,0x50,0x47,0x3a,0x3a,0x4d,0x45,0x08,0x3a,0x0a,0x40,0x6e,0x61,0x6d,0x65,0x49,0x22,0x09,0x6c,0x76,0x75,0x70,0x06,0x3a,0x06,0x45,0x54,0x3a,0x0b,0x40,0x70,0x69,0x74,0x63,0x68,0x69,0x69,0x3a,0x0c,0x40,0x76,0x6f,0x6c,0x75,0x6d,0x65,0x69,0x69))
   ShowMessageFace("",0,0,2,9)
   ShowMessage("ドーメイマは完全に回復した！")
   ShowMessageFace("domeima_fc1",0,0,2,10)
   ShowMessage("\\n<Domaimer>これの代わりに……水を……")
   RunCommonEvent(834)
   Wait(60)
   ChangeVariable(121,121,2,0,1)
   RunCommonEvent(901)
   EndEventProcessing()
   0()
  EndIf()
  If(1,1095,0,-1,0)
   ShowMessageFace("domeima_fc1",0,0,2,11)
   ShowMessage("\\n<Domaimer>み……")
   ShowMessageFace("",0,0,2,12)
   ShowMessage("ドーメイマは極度に衰弱している……")
   EndEventProcessing()
   0()
  EndIf()
  If(1,1095,0,-2,2)
   250(bytes(0x04,0x08,0x6f,0x3a,0x0c,0x52,0x50,0x47,0x3a,0x3a,0x53,0x45,0x08,0x3a,0x0a,0x40,0x6e,0x61,0x6d,0x65,0x49,0x22,0x0b,0x53,0x63,0x72,0x65,0x61,0x6d,0x06,0x3a,0x06,0x45,0x54,0x3a,0x0b,0x40,0x70,0x69,0x74,0x63,0x68,0x69,0x69,0x3a,0x0c,0x40,0x76,0x6f,0x6c,0x75,0x6d,0x65,0x69,0x55))
   ShowMessageFace("domeima_fc1",0,0,2,13)
   ShowMessage("\\n<Domaimer>ｷﾞｬｰ!!!!!")
   TemporaryRemoveEvent()
   ShowMessageFace("",0,0,2,14)
   ShowMessage("ドーメイマは力尽きた……")
   Wait(60)
   ChangeVariable(121,121,2,0,1)
   RunCommonEvent(901)
   EndEventProcessing()
   0()
  EndIf()
  0()



EVENT   2
 PAGE   1
  ShowMessageFace("slime_fc1",0,0,2,1)
  ShowMessage("\\n<スライム娘>おいしい魚を食べると、弱った人でも元気になるよ。")
  ShowMessage("でも、まずい魚を食べるとよけいに弱っちゃうかも……")
  0()



EVENT   3
 PAGE   1
  ShowMessageFace("",0,0,2,1)
  ShowMessage("次のフロアに進みますか？")
  ShowChoices(strings("まだ行かない","次のフロアに進む"),1)
  IfPlayerPicksChoice(0,null)
   205(-1,bytes(0x04,0x08,0x6f,0x3a,0x13,0x52,0x50,0x47,0x3a,0x3a,0x4d,0x6f,0x76,0x65,0x52,0x6f,0x75,0x74,0x65,0x09,0x3a,0x0c,0x40,0x72,0x65,0x70,0x65,0x61,0x74,0x46,0x3a,0x0f,0x40,0x73,0x6b,0x69,0x70,0x70,0x61,0x62,0x6c,0x65,0x46,0x3a,0x0a,0x40,0x77,0x61,0x69,0x74,0x54,0x3a,0x0a,0x40,0x6c,0x69,0x73,0x74,0x5b,0x07,0x6f,0x3a,0x15,0x52,0x50,0x47,0x3a,0x3a,0x4d,0x6f,0x76,0x65,0x43,0x6f,0x6d,0x6d,0x61,0x6e,0x64,0x07,0x3a,0x0a,0x40,0x63,0x6f,0x64,0x65,0x69,0x09,0x3a,0x10,0x40,0x70,0x61,0x72,0x61,0x6d,0x65,0x74,0x65,0x72,0x73,0x5b,0x00,0x6f,0x3b,0x0a,0x07,0x3b,0x0b,0x69,0x00,0x3b,0x0c,0x5b,0x00))
   EndEventProcessing()
   0()
  IfPlayerPicksChoice(1,null)
   ChangeInventory_Item(561,1,0,1)
   ChangeInventory_Item(562,1,0,1)
   ChangeInventory_Item(563,1,0,1)
   ChangeVariable(121,121,2,0,1)
   RunCommonEvent(901)
   EndEventProcessing()
   0()
  404()
  0()



EVENT   4
 PAGE   1
  0()
 PAGE   2
  // condition: variable 16 >= 1
  250(bytes(0x04,0x08,0x6f,0x3a,0x0c,0x52,0x50,0x47,0x3a,0x3a,0x53,0x45,0x08,0x3a,0x0a,0x40,0x6e,0x61,0x6d,0x65,0x49,0x22,0x0a,0x49,0x74,0x65,0x6d,0x31,0x06,0x3a,0x06,0x45,0x54,0x3a,0x0b,0x40,0x70,0x69,0x74,0x63,0x68,0x69,0x69,0x3a,0x0c,0x40,0x76,0x6f,0x6c,0x75,0x6d,0x65,0x69,0x55))
  ChangeVariable(16,16,0,0,0)
  ChangeInventory_Item(561,0,0,1)
  EndEventProcessing()
  0()
 PAGE   3
  // condition: variable 16 >= 2
  250(bytes(0x04,0x08,0x6f,0x3a,0x0c,0x52,0x50,0x47,0x3a,0x3a,0x53,0x45,0x08,0x3a,0x0a,0x40,0x6e,0x61,0x6d,0x65,0x49,0x22,0x0a,0x49,0x74,0x65,0x6d,0x31,0x06,0x3a,0x06,0x45,0x54,0x3a,0x0b,0x40,0x70,0x69,0x74,0x63,0x68,0x69,0x69,0x3a,0x0c,0x40,0x76,0x6f,0x6c,0x75,0x6d,0x65,0x69,0x55))
  ChangeVariable(16,16,0,0,0)
  ChangeInventory_Item(562,0,0,1)
  EndEventProcessing()
  0()
 PAGE   4
  // condition: variable 16 >= 3
  250(bytes(0x04,0x08,0x6f,0x3a,0x0c,0x52,0x50,0x47,0x3a,0x3a,0x53,0x45,0x08,0x3a,0x0a,0x40,0x6e,0x61,0x6d,0x65,0x49,0x22,0x0a,0x49,0x74,0x65,0x6d,0x31,0x06,0x3a,0x06,0x45,0x54,0x3a,0x0b,0x40,0x70,0x69,0x74,0x63,0x68,0x69,0x69,0x3a,0x0c,0x40,0x76,0x6f,0x6c,0x75,0x6d,0x65,0x69,0x55))
  ChangeVariable(16,16,0,0,0)
  ChangeInventory_Item(561,0,0,1)
  EndEventProcessing()
  0()
 PAGE   5
  // condition: variable 16 >= 4
  250(bytes(0x04,0x08,0x6f,0x3a,0x0c,0x52,0x50,0x47,0x3a,0x3a,0x53,0x45,0x08,0x3a,0x0a,0x40,0x6e,0x61,0x6d,0x65,0x49,0x22,0x0a,0x49,0x74,0x65,0x6d,0x31,0x06,0x3a,0x06,0x45,0x54,0x3a,0x0b,0x40,0x70,0x69,0x74,0x63,0x68,0x69,0x69,0x3a,0x0c,0x40,0x76,0x6f,0x6c,0x75,0x6d,0x65,0x69,0x55))
  ChangeVariable(16,16,0,0,0)
  ChangeInventory_Item(563,0,0,1)
  EndEventProcessing()
  0()



EVENT   5
 PAGE   1
  0()
 PAGE   2
  // condition: variable 16 >= 1
  250(bytes(0x04,0x08,0x6f,0x3a,0x0c,0x52,0x50,0x47,0x3a,0x3a,0x53,0x45,0x08,0x3a,0x0a,0x40,0x6e,0x61,0x6d,0x65,0x49,0x22,0x0a,0x49,0x74,0x65,0x6d,0x31,0x06,0x3a,0x06,0x45,0x54,0x3a,0x0b,0x40,0x70,0x69,0x74,0x63,0x68,0x69,0x69,0x3a,0x0c,0x40,0x76,0x6f,0x6c,0x75,0x6d,0x65,0x69,0x55))
  ChangeVariable(16,16,0,0,0)
  ChangeInventory_Item(561,0,0,1)
  EndEventProcessing()
  0()
 PAGE   3
  // condition: variable 16 >= 3
  250(bytes(0x04,0x08,0x6f,0x3a,0x0c,0x52,0x50,0x47,0x3a,0x3a,0x53,0x45,0x08,0x3a,0x0a,0x40,0x6e,0x61,0x6d,0x65,0x49,0x22,0x0a,0x49,0x74,0x65,0x6d,0x31,0x06,0x3a,0x06,0x45,0x54,0x3a,0x0b,0x40,0x70,0x69,0x74,0x63,0x68,0x69,0x69,0x3a,0x0c,0x40,0x76,0x6f,0x6c,0x75,0x6d,0x65,0x69,0x55))
  ChangeVariable(16,16,0,0,0)
  ChangeInventory_Item(562,0,0,1)
  EndEventProcessing()
  0()
 PAGE   4
  // condition: variable 16 >= 4
  250(bytes(0x04,0x08,0x6f,0x3a,0x0c,0x52,0x50,0x47,0x3a,0x3a,0x53,0x45,0x08,0x3a,0x0a,0x40,0x6e,0x61,0x6d,0x65,0x49,0x22,0x0a,0x49,0x74,0x65,0x6d,0x31,0x06,0x3a,0x06,0x45,0x54,0x3a,0x0b,0x40,0x70,0x69,0x74,0x63,0x68,0x69,0x69,0x3a,0x0c,0x40,0x76,0x6f,0x6c,0x75,0x6d,0x65,0x69,0x55))
  ChangeVariable(16,16,0,0,0)
  ChangeInventory_Item(563,0,0,1)
  EndEventProcessing()
  0()



EVENT   6
 PAGE   1
  0()
 PAGE   2
  // condition: variable 16 >= 1
  250(bytes(0x04,0x08,0x6f,0x3a,0x0c,0x52,0x50,0x47,0x3a,0x3a,0x53,0x45,0x08,0x3a,0x0a,0x40,0x6e,0x61,0x6d,0x65,0x49,0x22,0x0a,0x49,0x74,0x65,0x6d,0x31,0x06,0x3a,0x06,0x45,0x54,0x3a,0x0b,0x40,0x70,0x69,0x74,0x63,0x68,0x69,0x69,0x3a,0x0c,0x40,0x76,0x6f,0x6c,0x75,0x6d,0x65,0x69,0x55))
  ChangeVariable(16,16,0,0,0)
  ChangeInventory_Item(562,0,0,1)
  EndEventProcessing()
  0()
 PAGE   3
  // condition: variable 16 >= 2
  250(bytes(0x04,0x08,0x6f,0x3a,0x0c,0x52,0x50,0x47,0x3a,0x3a,0x53,0x45,0x08,0x3a,0x0a,0x40,0x6e,0x61,0x6d,0x65,0x49,0x22,0x0a,0x49,0x74,0x65,0x6d,0x31,0x06,0x3a,0x06,0x45,0x54,0x3a,0x0b,0x40,0x70,0x69,0x74,0x63,0x68,0x69,0x69,0x3a,0x0c,0x40,0x76,0x6f,0x6c,0x75,0x6d,0x65,0x69,0x55))
  ChangeVariable(16,16,0,0,0)
  ChangeInventory_Item(561,0,0,1)
  EndEventProcessing()
  0()
 PAGE   4
  // condition: variable 16 >= 3
  250(bytes(0x04,0x08,0x6f,0x3a,0x0c,0x52,0x50,0x47,0x3a,0x3a,0x53,0x45,0x08,0x3a,0x0a,0x40,0x6e,0x61,0x6d,0x65,0x49,0x22,0x0a,0x49,0x74,0x65,0x6d,0x31,0x06,0x3a,0x06,0x45,0x54,0x3a,0x0b,0x40,0x70,0x69,0x74,0x63,0x68,0x69,0x69,0x3a,0x0c,0x40,0x76,0x6f,0x6c,0x75,0x6d,0x65,0x69,0x55))
  ChangeVariable(16,16,0,0,0)
  ChangeInventory_Item(563,0,0,1)
  EndEventProcessing()
  0()
 PAGE   5
  // condition: variable 16 >= 5
  250(bytes(0x04,0x08,0x6f,0x3a,0x0c,0x52,0x50,0x47,0x3a,0x3a,0x53,0x45,0x08,0x3a,0x0a,0x40,0x6e,0x61,0x6d,0x65,0x49,0x22,0x0a,0x49,0x74,0x65,0x6d,0x31,0x06,0x3a,0x06,0x45,0x54,0x3a,0x0b,0x40,0x70,0x69,0x74,0x63,0x68,0x69,0x69,0x3a,0x0c,0x40,0x76,0x6f,0x6c,0x75,0x6d,0x65,0x69,0x55))
  ChangeVariable(16,16,0,0,0)
  ChangeInventory_Item(561,0,0,1)
  EndEventProcessing()
  0()



EVENT   7
 PAGE   1
  0()
 PAGE   2
  // condition: variable 16 >= 1
  250(bytes(0x04,0x08,0x6f,0x3a,0x0c,0x52,0x50,0x47,0x3a,0x3a,0x53,0x45,0x08,0x3a,0x0a,0x40,0x6e,0x61,0x6d,0x65,0x49,0x22,0x0a,0x49,0x74,0x65,0x6d,0x31,0x06,0x3a,0x06,0x45,0x54,0x3a,0x0b,0x40,0x70,0x69,0x74,0x63,0x68,0x69,0x69,0x3a,0x0c,0x40,0x76,0x6f,0x6c,0x75,0x6d,0x65,0x69,0x55))
  ChangeVariable(16,16,0,0,0)
  ChangeInventory_Item(563,0,0,1)
  EndEventProcessing()
  0()
 PAGE   3
  // condition: variable 16 >= 3
  250(bytes(0x04,0x08,0x6f,0x3a,0x0c,0x52,0x50,0x47,0x3a,0x3a,0x53,0x45,0x08,0x3a,0x0a,0x40,0x6e,0x61,0x6d,0x65,0x49,0x22,0x0a,0x49,0x74,0x65,0x6d,0x31,0x06,0x3a,0x06,0x45,0x54,0x3a,0x0b,0x40,0x70,0x69,0x74,0x63,0x68,0x69,0x69,0x3a,0x0c,0x40,0x76,0x6f,0x6c,0x75,0x6d,0x65,0x69,0x55))
  ChangeVariable(16,16,0,0,0)
  ChangeInventory_Item(561,0,0,1)
  EndEventProcessing()
  0()
 PAGE   4
  // condition: variable 16 >= 5
  250(bytes(0x04,0x08,0x6f,0x3a,0x0c,0x52,0x50,0x47,0x3a,0x3a,0x53,0x45,0x08,0x3a,0x0a,0x40,0x6e,0x61,0x6d,0x65,0x49,0x22,0x0a,0x49,0x74,0x65,0x6d,0x31,0x06,0x3a,0x06,0x45,0x54,0x3a,0x0b,0x40,0x70,0x69,0x74,0x63,0x68,0x69,0x69,0x3a,0x0c,0x40,0x76,0x6f,0x6c,0x75,0x6d,0x65,0x69,0x55))
  ChangeVariable(16,16,0,0,0)
  ChangeInventory_Item(562,0,0,1)
  EndEventProcessing()
  0()



EVENT   8
 PAGE   1
  0()
 PAGE   2
  // condition: variable 16 >= 1
  250(bytes(0x04,0x08,0x6f,0x3a,0x0c,0x52,0x50,0x47,0x3a,0x3a,0x53,0x45,0x08,0x3a,0x0a,0x40,0x6e,0x61,0x6d,0x65,0x49,0x22,0x0a,0x49,0x74,0x65,0x6d,0x31,0x06,0x3a,0x06,0x45,0x54,0x3a,0x0b,0x40,0x70,0x69,0x74,0x63,0x68,0x69,0x69,0x3a,0x0c,0x40,0x76,0x6f,0x6c,0x75,0x6d,0x65,0x69,0x55))
  ChangeVariable(16,16,0,0,0)
  ChangeInventory_Item(563,0,0,1)
  EndEventProcessing()
  0()
 PAGE   3
  // condition: variable 16 >= 3
  250(bytes(0x04,0x08,0x6f,0x3a,0x0c,0x52,0x50,0x47,0x3a,0x3a,0x53,0x45,0x08,0x3a,0x0a,0x40,0x6e,0x61,0x6d,0x65,0x49,0x22,0x0a,0x49,0x74,0x65,0x6d,0x31,0x06,0x3a,0x06,0x45,0x54,0x3a,0x0b,0x40,0x70,0x69,0x74,0x63,0x68,0x69,0x69,0x3a,0x0c,0x40,0x76,0x6f,0x6c,0x75,0x6d,0x65,0x69,0x55))
  ChangeVariable(16,16,0,0,0)
  ChangeInventory_Item(561,0,0,1)
  EndEventProcessing()
  0()
 PAGE   4
  // condition: variable 16 >= 4
  250(bytes(0x04,0x08,0x6f,0x3a,0x0c,0x52,0x50,0x47,0x3a,0x3a,0x53,0x45,0x08,0x3a,0x0a,0x40,0x6e,0x61,0x6d,0x65,0x49,0x22,0x0a,0x49,0x74,0x65,0x6d,0x31,0x06,0x3a,0x06,0x45,0x54,0x3a,0x0b,0x40,0x70,0x69,0x74,0x63,0x68,0x69,0x69,0x3a,0x0c,0x40,0x76,0x6f,0x6c,0x75,0x6d,0x65,0x69,0x55))
  ChangeVariable(16,16,0,0,0)
  ChangeInventory_Item(562,0,0,1)
  EndEventProcessing()
  0()
 PAGE   5
  // condition: variable 16 >= 5
  250(bytes(0x04,0x08,0x6f,0x3a,0x0c,0x52,0x50,0x47,0x3a,0x3a,0x53,0x45,0x08,0x3a,0x0a,0x40,0x6e,0x61,0x6d,0x65,0x49,0x22,0x0a,0x49,0x74,0x65,0x6d,0x31,0x06,0x3a,0x06,0x45,0x54,0x3a,0x0b,0x40,0x70,0x69,0x74,0x63,0x68,0x69,0x69,0x3a,0x0c,0x40,0x76,0x6f,0x6c,0x75,0x6d,0x65,0x69,0x55))
  ChangeVariable(16,16,0,0,0)
  ChangeInventory_Item(561,0,0,1)
  EndEventProcessing()
  0()



EVENT   9
 PAGE   1
  ChangeSwitch(49,49,0)
  250(bytes(0x04,0x08,0x6f,0x3a,0x0c,0x52,0x50,0x47,0x3a,0x3a,0x53,0x45,0x08,0x3a,0x0a,0x40,0x6e,0x61,0x6d,0x65,0x49,0x22,0x0a,0x43,0x68,0x65,0x73,0x74,0x06,0x3a,0x06,0x45,0x54,0x3a,0x0b,0x40,0x70,0x69,0x74,0x63,0x68,0x69,0x69,0x3a,0x0c,0x40,0x76,0x6f,0x6c,0x75,0x6d,0x65,0x69,0x55))
  205(0,bytes(0x04,0x08,0x6f,0x3a,0x13,0x52,0x50,0x47,0x3a,0x3a,0x4d,0x6f,0x76,0x65,0x52,0x6f,0x75,0x74,0x65,0x09,0x3a,0x0c,0x40,0x72,0x65,0x70,0x65,0x61,0x74,0x46,0x3a,0x0f,0x40,0x73,0x6b,0x69,0x70,0x70,0x61,0x62,0x6c,0x65,0x46,0x3a,0x0a,0x40,0x77,0x61,0x69,0x74,0x54,0x3a,0x0a,0x40,0x6c,0x69,0x73,0x74,0x5b,0x0b,0x6f,0x3a,0x15,0x52,0x50,0x47,0x3a,0x3a,0x4d,0x6f,0x76,0x65,0x43,0x6f,0x6d,0x6d,0x61,0x6e,0x64,0x07,0x3a,0x0a,0x40,0x63,0x6f,0x64,0x65,0x69,0x29,0x3a,0x10,0x40,0x70,0x61,0x72,0x61,0x6d,0x65,0x74,0x65,0x72,0x73,0x5b,0x00,0x6f,0x3b,0x0a,0x07,0x3b,0x0b,0x69,0x16,0x3b,0x0c,0x5b,0x00,0x6f,0x3b,0x0a,0x07,0x3b,0x0b,0x69,0x14,0x3b,0x0c,0x5b,0x06,0x69,0x08,0x6f,0x3b,0x0a,0x07,0x3b,0x0b,0x69,0x17,0x3b,0x0c,0x5b,0x00,0x6f,0x3b,0x0a,0x07,0x3b,0x0b,0x69,0x14,0x3b,0x0c,0x5b,0x06,0x69,0x08,0x6f,0x3b,0x0a,0x07,0x3b,0x0b,0x69,0x00,0x3b,0x0c,0x5b,0x00))
  ChangeSwitch(45,45,0)
  RunCommonEvent(903)
  ChangeSwitch(49,49,1)
  0()
 PAGE   2
  // condition: switch 45 is ON
  0()



EVENT   10
 PAGE   1
  ChangeSwitch(49,49,0)
  250(bytes(0x04,0x08,0x6f,0x3a,0x0c,0x52,0x50,0x47,0x3a,0x3a,0x53,0x45,0x08,0x3a,0x0a,0x40,0x6e,0x61,0x6d,0x65,0x49,0x22,0x0a,0x43,0x68,0x65,0x73,0x74,0x06,0x3a,0x06,0x45,0x54,0x3a,0x0b,0x40,0x70,0x69,0x74,0x63,0x68,0x69,0x69,0x3a,0x0c,0x40,0x76,0x6f,0x6c,0x75,0x6d,0x65,0x69,0x55))
  205(0,bytes(0x04,0x08,0x6f,0x3a,0x13,0x52,0x50,0x47,0x3a,0x3a,0x4d,0x6f,0x76,0x65,0x52,0x6f,0x75,0x74,0x65,0x09,0x3a,0x0c,0x40,0x72,0x65,0x70,0x65,0x61,0x74,0x46,0x3a,0x0f,0x40,0x73,0x6b,0x69,0x70,0x70,0x61,0x62,0x6c,0x65,0x46,0x3a,0x0a,0x40,0x77,0x61,0x69,0x74,0x54,0x3a,0x0a,0x40,0x6c,0x69,0x73,0x74,0x5b,0x0b,0x6f,0x3a,0x15,0x52,0x50,0x47,0x3a,0x3a,0x4d,0x6f,0x76,0x65,0x43,0x6f,0x6d,0x6d,0x61,0x6e,0x64,0x07,0x3a,0x0a,0x40,0x63,0x6f,0x64,0x65,0x69,0x29,0x3a,0x10,0x40,0x70,0x61,0x72,0x61,0x6d,0x65,0x74,0x65,0x72,0x73,0x5b,0x00,0x6f,0x3b,0x0a,0x07,0x3b,0x0b,0x69,0x16,0x3b,0x0c,0x5b,0x00,0x6f,0x3b,0x0a,0x07,0x3b,0x0b,0x69,0x14,0x3b,0x0c,0x5b,0x06,0x69,0x08,0x6f,0x3b,0x0a,0x07,0x3b,0x0b,0x69,0x17,0x3b,0x0c,0x5b,0x00,0x6f,0x3b,0x0a,0x07,0x3b,0x0b,0x69,0x14,0x3b,0x0c,0x5b,0x06,0x69,0x08,0x6f,0x3b,0x0a,0x07,0x3b,0x0b,0x69,0x00,0x3b,0x0c,0x5b,0x00))
  ChangeSwitch(46,46,0)
  RunCommonEvent(903)
  ChangeSwitch(49,49,1)
  0()
 PAGE   2
  // condition: switch 46 is ON
  0()



EVENT   11
 PAGE   1
  221()
  ChangeSwitch(41,41,1)
  ChangeSwitch(52,52,1)
  ChangeSaveEnabled(1)
  ChangeSwitch(61,61,1)
  ChangeSwitch(62,62,1)
  ChangeSwitch(63,63,1)
  ChangeSwitch(64,64,1)
  ChangeSwitch(65,65,1)
  ChangeSwitch(69,69,1)
  ChangeSwitch(70,70,1)
  ChangeSwitch(71,71,1)
  ChangeSwitch(72,72,1)
  ChangeSwitch(54,54,1)
  ChangeSwitch(66,66,1)
  ChangeSwitch(67,67,1)
  ChangeSwitch(68,68,1)
  ChangeVariable(131,131,0,0,0)
  ChangeVariable(121,121,0,0,0)
  RunCommonEvent(112)
  If(1,121,1,122,1)
   ChangeVariable(122,122,0,1,121)
   0()
  EndIf()
  TeleportPlayer(0,576,14,50,2,2)
  ShowMessageFace("",0,0,2,1)
  ShowMessage("混沌の迷宮リニューアルにつき、過去の迷宮から弾き出された！")
  Wait(60)
  222()
  TemporaryRemoveEvent()
  0()
 PAGE   2
  // condition: switch 1926 is ON
  0()
